AWSTATS DATA FILE 7.4 (build 20140726)
# If you remove this file, all statistics for date 201608 will be lost/reset.
# Last config file used to build this data file was /home2/iutfrped/tmp/awstats/awstats.iutfrp.edu.ve.conf.

# Position (offset in bytes) in this file for beginning of each section for
# direct I/O access. If you made changes somewhere in this file, you should
# also remove completely the MAP section (AWStats will rewrite it at next
# update).
BEGIN_MAP 28
POS_GENERAL 2011                
POS_TIME 2701                
POS_VISITOR 26759               
POS_DAY 92880               
POS_DOMAIN 3720                
POS_LOGIN 4426                
POS_ROBOT 4581                
POS_WORMS 5094                
POS_EMAILSENDER 5225                
POS_EMAILRECEIVER 5368                
POS_SESSION 93284               
POS_SIDER 93501               
POS_FILETYPES 5503                
POS_DOWNLOADS 5893                
POS_OS 6032                
POS_BROWSER 6423                
POS_SCREENSIZE 9740                
POS_UNKNOWNREFERER 9814                
POS_UNKNOWNREFERERBROWSER 11441               
POS_ORIGIN 11921               
POS_SEREFERRALS 12074               
POS_PAGEREFS 12327               
POS_SEARCHWORDS 13158               
POS_KEYWORDS 14576               
POS_MISC 2362                
POS_ERRORS 15236               
POS_CLUSTER 4282                
POS_SIDER_404 15401               
END_MAP

# LastLine    = Date of last record processed - Last record line number in last log - Last record offset in last log - Last record signature value
# FirstTime   = Date of first visit for history file
# LastTime    = Date of last visit for history file
# LastUpdate  = Date of last update - Nb of parsed records - Nb of parsed old records - Nb of parsed new records - Nb of parsed corrupted - Nb of parsed dropped
# TotalVisits = Number of visits
# TotalUnique = Number of unique visitors
# MonthHostsKnown   = Number of hosts known
# MonthHostsUnKnown = Number of hosts unknown
BEGIN_GENERAL 8
LastLine 20160901000007 5018 1072900 11966051396746
FirstTime 20160821213524
LastTime 20160831235958
LastUpdate 20160901005242 5018 0 5017 0 0
TotalVisits 2198                
TotalUnique 1561                
MonthHostsKnown 0                   
MonthHostsUnknown 1586                
END_GENERAL

# Misc ID - Pages - Hits - Bandwidth
BEGIN_MISC 10
WindowsMediaPlayerSupport 0 0 0
FlashSupport 0 0 0
PDFSupport 0 0 0
JavascriptDisabled 0 0 0
RealPlayerSupport 0 0 0
JavaEnabled 0 0 0
DirectorSupport 0 0 0
QuickTimeSupport 0 0 0
AddToFavourites 0 1121 0
TotalMisc 0 0 0
END_MISC

# Hour - Pages - Hits - Bandwidth - Not viewed Pages - Not viewed Hits - Not viewed Bandwidth
BEGIN_TIME 24
0 458 1686 189801834 290 800 11070320
1 440 1879 210005833 264 818 14274952
2 468 2016 244885691 209 837 24984704
3 574 2156 233348136 249 899 19625011
4 489 1627 189504988 207 737 13203062
5 242 1001 138022938 179 589 4686191
6 168 637 93269701 182 581 11758534
7 56 230 28687246 125 339 1578631
8 25 117 15801970 112 287 2901468
9 26 117 18715476 161 329 3622262
10 18 67 9939161 130 290 2000134
11 21 87 14033957 144 317 2889375
12 44 175 17603477 148 322 6660713
13 149 569 61363690 97 330 10604717
14 450 1527 177898860 128 493 8896476
15 552 1984 210222723 214 690 15486542
16 676 2683 336432776 195 913 23413329
17 627 2561 349457398 166 811 16499878
18 526 2158 297848619 174 674 15186535
19 628 2603 355828819 125 745 17831366
20 533 2252 295682311 132 687 19125053
21 580 2441 311394622 215 821 23664790
22 519 2223 303177317 220 892 27991906
23 471 1873 226735884 307 973 15229811
END_TIME

# Domain - Pages - Hits - Bandwidth
# The 25 first Pages must be first (order not required for others)
BEGIN_DOMAIN 31
ve 8197 32607 4048414560
us 261 1010 129712127
ar 37 182 29565295
ec 35 101 14132038
fr 32 102 14646344
es 26 94 14086369
co 23 123 17072896
de 17 29 2593309
do 17 59 5044727
br 14 78 13453113
pa 13 53 8526367
mx 11 25 3043402
cl 7 48 8131029
it 6 20 2597970
pt 5 19 3003814
au 5 17 2478309
in 4 4 22376
gb 3 16 2518360
jm 3 17 3055930
ru 3 15 2467121
cr 3 15 2518307
ca 3 6 979
ph 3 15 2518253
tr 2 2 13196
nl 2 2 12328
ee 1 1 692
pe 1 3 1065
dz 1 1 5594
eg 2 2 11188
sa 1 1 5181
pk 2 2 11188
END_DOMAIN

# Cluster ID - Pages - Hits - Bandwidth
BEGIN_CLUSTER 0
END_CLUSTER

# Login - Pages - Hits - Bandwidth - Last visit
# The 10 first Pages must be first (order not required for others)
BEGIN_LOGIN 0
END_LOGIN

# Robot ID - Hits - Bandwidth - Last visit - Hits on robots.txt
# The 25 first Hits must be first (order not required for others)
BEGIN_ROBOT 10
googlebot\-image 1993 39001437 20160831235125 0
bot[\s_+:,\.\;\/\\-] 694 10805379 20160831230443 164
php 544 27812320 20160831230145 0
googlebot 357 3079436 20160831233451 20
bingpreview 52 7649070 20160827234259 0
crawl 17 17930 20160830150410 3
robot 14 273510 20160828082658 5
no_user_agent 5 257360 20160831085923 1
slurp 3 6694 20160829223224 1
unknown 2 48 20160829211454 2
END_ROBOT

# Worm ID - Hits - Bandwidth - Last visit
# The 5 first Hits must be first (order not required for others)
BEGIN_WORMS 0
END_WORMS

# EMail - Hits - Bandwidth - Last visit
# The 20 first Hits must be first (order not required for others)
BEGIN_EMAILSENDER 0
END_EMAILSENDER

# EMail - Hits - Bandwidth - Last visit
# The 20 first hits must be first (order not required for others)
BEGIN_EMAILRECEIVER 0
END_EMAILRECEIVER

# Files type - Hits - Bandwidth - Bandwidth without compression - Bandwidth after compression
BEGIN_FILETYPES 16
txt 8 424 0 0
png 7982 112462683 0 0
cgi 235 1582960 0 0
eot 37 1883391 0 0
svg 101 1399634 0 0
css 5540 232984394 0 0
Unknown 319 4358504 0 0
woff 211 13395420 0 0
gif 784 121399 0 0
woff2 1309 64251540 0 0
php 1 6814 0 0
ttf 26 2930208 0 0
js 3779 199752450 0 0
tmp 2 128 0 0
html 6600 38462496 0 0
jpg 7735 3656070982 0 0
END_FILETYPES

# Downloads - Hits - Bandwidth
BEGIN_DOWNLOADS 2
/F1EB709B63E52A8EAD540F7E393A5193.txt 7 0 371
/1F8B51F0591BF05184CCFE39701DF778.txt 1 0 53
END_DOWNLOADS

# OS ID - Hits
BEGIN_OS ID - Hits - Pages 22
winnt 4961 1203
win8.1 2058 505
winunknown 1 1
winphone 55 15
linux 813 254
winxp 4029 996
unix 144 25
linuxandroid 4356 1071
macosx 173 36
linuxubuntu 36 8
winlong 165 51
symbian 15 2
j2me 18 2
ios_iphone 281 73
win7 14790 3640
Unknown 451 98
java 2 2
blackberry 70 12
linuxredhat 1 1
win8 2224 738
macosx6 22 5
macosx9 4 2
END_OS

# Browser ID - Hits - Pages
BEGIN_BROWSER 153
firefox20.0 2 2
firefox11.0 15 3
chrome49.0.2623.110 55 17
chrome52.0.2743.98 823 189
safari7.0 32 6
safari10.3.2.2876 17 5
firefox3.8 1 1
firefox25.0 18 4
chrome34.0.1847.137 1 1
chrome39.0.2171.93 18 3
iphone 36 10
chrome47.0.2526.73 29 4
chrome51.0.2704.106 134 59
firefox44.0 65 9
chrome32.0.1700.107 34 5
chrome50.0.2661.102 98 31
firefox13.0 9 9
chrome44.0.2403.133 4 1
chrome46.0.2486.0 107 25
msie8.0 49 12
firefox26.0 18 6
firefox18.0 19 7
chrome53.0.2785.70 15 3
chrome38.0.1025.166 36 4
firefox23.0 79 17
chrome49.0.2623.105 44 28
chrome30.0.0.0 799 194
chrome38.0.2125.102 17 2
chrome35.0.1916.153 40 12
msie11.0 476 115
firefox24.0 3 1
chrome51.12.2704.63 17 3
firefox45.0 298 76
chrome52.0.2743.41 52 9
opera29.0.1795.47 17 3
safari8.0 19 5
chrome50.10.2661.78 4 2
samsung 15 3
chrome39.0.2171.71 8 6
chrome46.0.2490.76 3 1
firefox29.0 4 2
chrome38.0.2125.104 15 3
chrome33.0.0.0 413 147
chrome46.0.2490.86 20 6
chrome43.0.2357.134 17 3
opera33.0.2002.97426 34 8
opera38.0.2220.29 36 8
safari2.0.1 15 2
firefox12.0 55 15
chrome39.0.2171.65 59 15
firefox32.0 15 3
android 966 206
chrome52.0.2743.85 144 25
firefox4.0 1 1
firefox2.0.0.9 13 1
chrome28.0.1500.71 3 2
firefox38.0 51 9
chrome52.9.2743.82 99 27
chrome51.0.2704.79 34 6
Unknown 20 16
chrome46.0.2472.0 3 1
safari6.0.0.756 6 4
firefox3.0.2 1 1
chrome36.0.1985.143 47 9
chrome52.0.2743.116 18059 4682
chrome50.20.2661.78 14 1
safari 37 8
firefox39.0 30 6
msie9.0 82 21
chrome32.0.1700.102 17 3
blackberry 17 3
firefox40.1 15 15
chrome26.0.1410.58 29 4
chrome40.0.2214.111 15 3
chrome48.0.2564.116 37 8
chrome33.0.1750.136 17 3
firefox42.0 3 1
chrome6.0.472.63 1 1
chrome46.0.2490.80 15 3
chrome34.0.1847.76 18 4
firefox10.0 5 5
firefox3.6.3 1 1
firefox36.0 111 24
chrome43.0.2357.130 84 28
chrome50.0.2661.89 75 21
chrome46.0.2490.71 21 7
chrome54.0.2832.2 3 1
chrome52.6.2743.82 20 7
safari10.3.2.2888 36 20
chrome51.0.2704.63 47 9
safari6.0.0.448 33 3
firefox48.0 1618 315
chrome47.0.2526.83 154 36
chrome49.0.2623.75 57 45
chrome51.0.2683.0 70 14
chrome47.0.2526.111 17 4
opera37.0.2192.105088 39 12
chrome32.0.1700.76 15 3
chrome39.0.2171.95 17 3
firefox47.0 2061 478
chrome45.0.2454.93 33 6
safari9.0 174 46
firefox27.0 58 12
chrome42.0.2311.90 15 3
firefox31.0 118 24
safari9.1.2 30 6
netscape5.0 1 1
wap 10 2
chrome49.0.2623.87 16 4
chrome41.0.2272.118 16 4
chrome51.0.2704.103 281 48
safari9.1.1 17 3
chrome51.0.2704.81 250 52
chrome44.0.2403.157 84 34
chrome52.0.2743.91 59 17
chrome18.0.1025.166 14 4
firefox21.0 6 2
firefox40.0 156 33
chrome28.0.1500.94 136 48
firefox8.0.1 15 3
chrome37.0.0.0 16 4
chrome33.0.1750.146 15 3
firefox46.0 137 24
chrome36.0.1985.125 34 6
mozilla 209 24
chrome47.0.2526.106 169 31
chrome42.0.2311.152 2 2
chrome33.0.1750.154 17 5
opera39.0.2256.48 235 36
firefox41.0 51 9
chrome33.0.1750.117 35 7
chrome37.0.2062.94 1 1
chrome34.0.1847.118 21 7
chrome41.0.2272.96 202 41
firefox43.0 208 50
msie6.0 4 2
msie10.0 18 5
chrome30.0.1599.66 1 1
firefox8.0 153 38
chrome34.0.1847.114 117 26
chrome42.0.2311.135 37 9
firefox28.0 5 5
chrome50.0.2661.86 3 1
firefox37.0 51 13
msie7.0 5 2
opera12.16 61 8
chrome49.0.2623.112 2749 743
firefox33.0 24 10
firefox3.6.13 60 32
chrome32.0.1667.0 5 5
chrome12.0.742.112 1 1
chrome18.0.1025.142 46 21
chrome16.0.912.77 1 1
END_BROWSER

# Screen size - Hits
BEGIN_SCREENSIZE 0
END_SCREENSIZE

# Unknown referer OS - Last visit date
BEGIN_UNKNOWNREFERER 24
MetaURI_API/2.0__metauri.com 20160829211612
Cpanel-HTTP-Client/1.0 20160823042133
Opera/9.80_(Android;_Opera_Mini/7.5.35199/37.8841;_U;_es)_Presto/2.12.423_Version/12.16 20160825015042
Mozilla/5.0 20160829213021
Mozilla/5.0_(Android_4.4.2;_Tablet;_rv:43.0)_Gecko/43.0_Firefox/43.0 20160831030332
WhatsApp/2.16.222_A 20160823161919
<a_href=\ 20160822073047
Mozilla/5.0_(Android_4.4.4;_Tablet;_rv:45.0)_Gecko/45.0_Firefox/45.0 20160824004948
Mozilla/5.0_(Android_4.4.2;_Tablet;_rv:48.0)_Gecko/48.0_Firefox/48.0 20160831001615
Mozilla/5.0_(Android_4.4.4;_Tablet;_rv:48.0)_Gecko/48.0_Firefox/48.0 20160829225451
Mozilla/5.0_(Android_4.4.2;_Mobile;_rv:48.0)_Gecko/48.0_Firefox/48.0 20160829122440
MAUI_WAP_Browser_Google 20160830004922
Mozilla/5.0_(compatible;_Embedly/0.2;__http://support.embed.ly/) 20160828193646
MAUI_WAP_Browser 20160830005025
COMODO_DCV 20160823042238
Mozilla/5.0_(compatible;_Embedly/0.2;_snap;__http://support.embed.ly/) 20160828193647
Mozilla/5.0_(Android_4.1.2;_Tablet;_rv:48.0)_Gecko/48.0_Firefox/48.0 20160823001812
facebookexternalhit/1.1 20160831163354
VB-Tec:INET 20160825181844
Mozilla/5.0_(BB10;_Touch)_AppleWebKit/537.35__(KHTML,_like_Gecko)_Version/10.3.2.2888_Mobile_Safari/537.35_ 20160830000642
Mozilla/4.0_(compatible;) 20160831220753
Mozilla/5.0_(BB10;_Touch)_AppleWebKit/537.35__(KHTML,_like_Gecko)_Version/10.3.2.2876_Mobile_Safari/537.35_ 20160826192145
WordPress.com;_https://public-api.wordpress.com 20160823205500
Mozilla/5.0_(Android_4.4.2;_Tablet;_rv:46.0)_Gecko/46.0_Firefox/46.0 20160823161710
END_UNKNOWNREFERER

# Unknown referer Browser - Last visit date
BEGIN_UNKNOWNREFERERBROWSER 10
WhatsApp/2.16.222_A 20160823161919
Cpanel-HTTP-Client/1.0 20160823042133
VB-Tec:INET 20160825181844
facebookexternalhit/1.1 20160831163354
<a_href=\ 20160822073047
Microsoft_Office_Mobile/15.0 20160823140510
WordPress.com;_https://public-api.wordpress.com 20160823205500
COMODO_DCV 20160823042238
MetaURI_API/2.0__metauri.com 20160829211612
Google-HTTP-Java-Client/1.17.0-rc_(gzip) 20160829211454
END_UNKNOWNREFERERBROWSER

# Origin - Pages - Hits 
BEGIN_ORIGIN 6
From0 1484 1675
From1 9 9
From2 1840 1939
From3 421 421
From4 4986 30625
From5 0 0
END_ORIGIN

# Search engine referers ID - Pages - Hits
BEGIN_SEREFERRALS 9
ask 3 3
live 44 44
google 1761 1846
yahoo 15 15
search 2 2
bing 10 24
mysearch 3 3
yandex 1 1
duckduckgo 1 1
END_SEREFERRALS

# External page referers - Pages - Hits
# The 25 first Pages must be first (order not required for others)
BEGIN_PAGEREFS 21
http://loeu.opsu.gob.ve/vistas/instituciones/consultar.php 108 108
https://www.facebook.com 105 105
https://t.co/uA8ubyao5n 92 92
http://m.facebook.com 58 58
https://www.facebook.com 12 12
https://m.facebook.com 8 8
http://l.facebook.com/l.php 7 7
http://1-99seo.com/try.php 6 6
http://m.facebook.com 5 5
http://lm.facebook.com/l.php 3 3
http://david.rengifo.mx 3 3
http://1-free-share-buttons.com 3 3
https://t.co/wiNzblz8E6 2 2
https://t.co/mDdh2EoMaC 2 2
https://m.facebook.com/profile.php 1 1
https://m.facebook.com 1 1
https://apps.facebook.com 1 1
http://lm.facebook.com/lsr.php 1 1
https://www.messenger.com 1 1
https://es-la.facebook.com 1 1
https://mobile.facebook.com 1 1
END_PAGEREFS

# Search keyphrases - Number of search
# The 10 first number of search must be first (order not required for others)
BEGIN_SEARCHWORDS 33
iutfrp 8
http+%2f%2fiutfrp.edu.ve 7
inscripciones+del+iut 4
iut 4
control+de+estudios+iutfrp 3
federico+rivero+pelazzo+universidad 2
iut+dr+federico+rivero+palacio+inscripciones+2016 2
direccion+del+instituto+rivero+palacios+caracas 2
iut+caracas 2
iut+dr.+federico+rivero+palacio 2
graduaci%f3n+de+la+misi%f3n+sucre+2016+caracas+iute 2
instituto+universitario+dr.+federico+rivero+palacios 1
instituto+universitario+teconoloigico+dr+federici+rivero+palacio 1
782afa45 1
numero+del+federico+palacios+rivero 1
imagenes+de+construccion+civil+pnf 1
iutfpr 1
instituto+universitario+tecnologico+dr+federivo+rivero+palacio 1
instituto+universitario+dr+federico+rivero+palacios 1
iutfrp+inscripciones+2016 1
instituto+universitario+dr+federico+rivero 1
www.iutfrp.edu.ve 1
instituto+universitario+federico+rivero+palacios+caracas 1
ingenier%c3%ada+de+materiales+industriales+menci%c3%b3n+metal%c3%bargia 1
federico+rivero+palacios 1
iutfrp.edu.ve 1
inscrpciones+del+instituto+universitario+tecnologico+dr+federico+rivero+palacio 1
universidad+iut+frp+caracas 1
iut+los+teques 1
iut+dr+federico+rivero+palacio 1
instituto+universirario+tecnologico+dr+federico+rivero+palacio 1
instituto+universitario+tecnologico+dr+federico+rivero+palacio 1
titulo+de+tsu+perdido+iut-rc 1
END_SEARCHWORDS

# Search keywords - Number of search
# The 25 first number of search must be first (order not required for others)
BEGIN_KEYWORDS 54
rivero 20
iut 17
federico 16
iutfrp 12
instituto 11
dr 10
palacio 10
de 8
del 8
universitario 8
caracas 8
inscripciones 7
http 7
palacios 7
%2f%2fiutfrp.edu.ve 7
2016 5
tecnologico 4
control 3
dr. 3
estudios 3
universidad 3
la 2
sucre 2
iute 2
pelazzo 2
perdido 1
frp 1
titulo 1
ingenier%c3%ada 1
www.iutfrp.edu.ve 1
iutfrp.edu.ve 1
iut-rc 1
numero 1
tsu 1
federivo 1
los 1
imagenes 1
metal%c3%bargia 1
construccion 1
universirario 1
industriales 1
civil 1
pnf 1
inscrpciones 1
graduaci%f3n 2
misi%f3n 2
materiales 1
federici 1
teques 1
iutfpr 1
782afa45 1
teconoloigico 1
menci%c3%b3n 1
direccion 2
END_KEYWORDS

# Errors - Hits - Bandwidth
BEGIN_ERRORS 6
302 5827 1953284
301 29 6605
405 32 2117767
500 34 2582472
404 2452 0
206 1245 216375024
END_ERRORS

# URL with 404 errors - Hits - Last URL referrer
BEGIN_SIDER_404 221
/control/index.php/pregrado/12 1 -
/fonts/glyphicons-halflings-regular.ttf 2 http://webcache.googleusercontent.com/search
/img/carousel/2.jpg 10 http://webcache.googleusercontent.com/search
/control/index.php/bienestar 1 -
/apple-app-site-association 2 -
/multimedia/Tuesday%2031st%20of%20May%202016%2008%2018%2017%20PM.jpg 1 -
/services 5 -
/control/index.php/img/related/aHR0cDovL3d3dy5mdW5kYXlhY3VjaG8uZ29iLnZlLw==.jpg 1 -
/fonts/glyphicons-halflings-regular.eot 1 http://www.iutfrp.edu.ve/
/img/news/n160619161407%3CB%3EPN.jpg 2 -
/img/news/n160627224049%3CB%3ECo.jpg 1 -
/pregrado/7 2 -
/img/img-3.png 8 http://webcache.googleusercontent.com/search
/pregrado/9 2 -
/img/news/n160710181239<b>Co.jpg 1 -
/img/news/n160606225520%3CB%3EFu.jpg 1 -
/control/preinsc/index.php/pregrado/13 1 -
/multimedia/Thursday%2030th%20of%20June%202016%2011%2015%2011%20PM.jpg 1 -
/news/44 3 -
/control/index.php/img/related/aHR0cDovL3d3dy5vcHN1LmdvYi52ZS9wb3J0YWwvdmlzdGFzL2Rlc2Nhcmdhcy9iYW5uZXJzL2FyY19QbGFuX2RlX2xhX1BhdHJpYV9Qcm9ncmFtYV9kZS5wZGY=.jpg 2 -
/apple-touch-icon.png 5 -
/control/index.php/news/46 1 -
/images/demo/imgl.gif 1 -
/images/demo/100x100.gif 1 -
/control/preinsc/index.php/img/related/aHR0cDovL3d3dy5taXNpb25zdWNyZS5nb3YudmUv.jpg 3 -
/js/bootstrap.min.js 4 http://webcache.googleusercontent.com/search
/news/55 3 -
/control/preinsc/index.php/img/related/aHR0cDovL3d3dy5mdW5kYXlhY3VjaG8uZ29iLnZlLw==.jpg 2 -
/control/index.php/pregrado/20 2 -
/control/preinsc/index.php/img/related/aHR0cDovL3d3dy5vcHN1LmdvYi52ZS9wb3J0YWwvdmlzdGFzL2Rlc2Nhcmdhcy9iYW5uZXJzL2FyY19QbGFuX2RlX2xhX1BhdHJpYV9Qcm9ncmFtYV9kZS5wZGY=.jpg 5 -
/control/index.php/pregrado/21 1 -
/img/img-1.png 9 http://webcache.googleusercontent.com/search
/images/demo/comedor.gif 1 -
/multimedia/Tuesday%2031st%20of%20May%202016%2008%2018%2034%20PM.jpg 1 -
/news/53 1 -
/multimedia/Tuesday%205th%20of%20July%202016%2007%2030%2057%20PM.jpg 1 -
/pregrado/15 3 -
/license.php 1 http://iutfrp.edu.ve/license.php
/img/indexPhoto/display-1.png 7 http://webcache.googleusercontent.com/search
/multimedia/Friday%2022nd%20of%20July%202016%2007%2005%2005%20PM.jpg 1 -
/img/news/n160707224116%3Cb%3EJa.jpg 1 -
/img/carousel/aa.jpg 1 -
/multimedia/Wednesday%2013th%20of%20July%202016%2003%2020%2014%20PM.jpg 1 -
/news/46 1 -
/control/multimedia/Wednesday%206th%20of%20July%202016%2003%2048%2051%20PM.jpg 1 -
/control/index.php/pregrado/9 1 -
/nustr%20IUT.html 5 -
/multimedia/Monday%204th%20of%20July%202016%2009%2043%2048%20AM.JPG 1 -
/pagi 1 -
/control/multimedia/Wednesday%206th%20of%20July%202016%2003%2051%2003%20PM.jpg 1 -
/control/index.php/news/50 1 -
/img/events/aHR0cDovL2l1dGZycC5lZHUudmUvc2VydmljZXM=.jpg 247 http://webcache.googleusercontent.com/search
/images/demo/220x80.gif 1 -
/js/jquery-1.11.1.min.js 4 http://webcache.googleusercontent.com/search
/multimedia/Friday%2022nd%20of%20July%202016%2007%2005%2018%20PM.jpg 1 -
/css/bootstrap.min.css 4 http://webcache.googleusercontent.com/search
/index_files/1imber%2520097-3.jpg 1 -
/aboutUs 1 -
/control/index.php/img/related/aHR0cDovL3d3dy5taXNpb25zdWNyZS5nb3YudmUv.jpg 2 -
/news/51 2 -
/control/preinsc/index.php/pregrado/17 1 -
/index_files/logo.png 1 -
/multimedia/Wednesday%2013th%20of%20April%202016%2009%2009%2023%20PM.jpg 1 -
/multimedia/Friday%201st%20of%20July%202016%2009%2056%2017%20PM.jpg 1 -
/py 1 -
/control/preinsc/index.php/galery 1 -
/css/font-awesome.min.css 4 http://webcache.googleusercontent.com/search
/control/index.php/services 2 http://r.search.yahoo.com/_ylt=A0LEVjtiZbtXyEkA932_eAx.
/.well-known/apple-app-site-association 2 -
/multimedia/Thursday%2026th%20of%20May%202016%2001%2019%2050%20PM.jpg 1 -
/wp-login.php 3 -
/control/preinsc/verificar0.php 1 -
/multimedia/Monday%209th%20of%20May%202016%2008%2021%2017%20PM.jpg 1 -
/multimedia/Wednesday%2020th%20of%20April%202016%2010%2042%2030%20PM.png 2 -
/fonts/fontawesome-webfont.woff 3 http://webcache.googleusercontent.com/search
/multimedia/Friday%2015th%20of%20July%202016%2004%2016%2032%20PM.jpg 1 -
/fonts/fontawesome-webfont.ttf 3 http://webcache.googleusercontent.com/search
/img/events/aHR0cHM6Ly9zaXRlcy5nb29nbGUuY29tL3NpdGUvZHB0b2NkZS8=.jpg 245 http://webcache.googleusercontent.com/search
/index_files/img-1.png 1 -
/img/news/n160701200001%3Cb%3EIn.jpg 2 -
/iut 23 https://www.google.co.ve
/multimedia/Thursday%2030th%20of%20June%202016%2010%2053%2036%20PM.jpg 1 -
/multimedia/Tuesday%2017th%20of%20May%202016%2008%2012%2039%20PM.jpg 1 -
/control/js/bootstrap.min.js 3 http://iutfrp.edu.ve/control/index.php/news/64
/pregrado/18 2 https://www.google.co.ve/
/pregrado/14 5 http://webcache.googleusercontent.com/search
/cgi-bin/ 167 http://www.iutfrp.edu.ve/
/pregrado/16 3 https://www.google.co.ve/
/control/preinsc/login1.php 4 -
/control/preinsc/index.php/news/62 1 -
/img/news/n160630230457%3Cb%3EEl.jpg 1 -
/bienestar 5 -
/control/preinsc/multimedia/Friday%2022nd%20of%20July%202016%2007%2000%2006%20PM.jpg 1 -
/control/index.php/pregrado/7 1 -
/control/index.php/pregrado/11 1 -
/fonts/fontawesome-webfont.eot 1 http://www.iutfrp.edu.ve/
/cde/ 1 -
/images/demo/autobuuu.jpg 1 -
/index_files/zfachada2-2.jpg 1 -
/apple-touch-icon-precomposed.png 9 -
/img/news/n160710181239%3Cb%3ECo.jpg 7 http://webcache.googleusercontent.com/search
/img/carousel/z.jpg 1 -
/images/demo/cutural.gif 1 -
/administrator/ 1 -
/control/preinsc/index.php/img/events/aHR0cDovL2l1dGZycC5lZHUudmUvc2VydmljZXM=.jpg 3 -
/control/index.php/pregrado/8 1 -
/galery 101 https://www.google.co.ve/
/multimedia/Wednesday%2013th%20of%20April%202016%2008%2034%2054%20PM.png 1 -
/img/carousel/1a.jpg 35 -
/multimedia/Thursday%2026th%20of%20May%202016%2001%2020%2003%20PM.jpg 1 -
/control/index.php/news/44 1 -
/pregrado/8 5 -
/control/index.php/news/55 1 -
/pregrado/17 4 -
/multimedia/Wednesday%206th%20of%20July%202016%2004%2030%2013%20PM.jpg 1 -
/multimedia/Wednesday%206th%20of%20July%202016%2004%2030%2039%20PM.jpg 1 -
/admin.php 1 -
/pregrado/12 1 -
/control/index.php/pregrado/15 1 -
/css/global.css 4 http://webcache.googleusercontent.com/search
/control/js/jquery-1.11.1.min.js 3 http://iutfrp.edu.ve/control/index.php/news/64
/img/news/n160706150504%3Cb%3EEm.jpg 7 http://webcache.googleusercontent.com/search
/control/index.php/pregrado/14 1 -
/multimedia/Wednesday%206th%20of%20July%202016%2003%2053%2058%20PM.jpg 1 -
/control/index.php/gallery 5 -
/control/index.php/pregrado/17 1 -
/rss 1 -
/multimedia/Saturday%209th%20of%20July%202016%2006%2007%2011%20PM.jpg 1 -
/control/preinsc/index.php/img/events/aHR0cDovL2l1dGZycC5lZHUudmU=.jpg 2 -
/pagii 1 -
/multimedia/Friday%2022nd%20of%20April%202016%2007%2008%2052%20PM.JPG 1 -
/img/events/aHR0cDovL2l1dGZycC5lZHUudmU=.jpg 249 -
/pregrado/11 3 http://webcache.googleusercontent.com/search
/img/img-2.png 9 http://webcache.googleusercontent.com/search
/control/index.php/allnews 1 -
/multimedia/Friday%2022nd%20of%20July%202016%2007%2004%2044%20PM.jpg 1 https://www.google.co.ve/
/img/news/n160701195621%3Cb%3EAs.jpg 1 -
/control/preinsc/index.php/img/events/aHR0cHM6Ly9zaXRlcy5nb29nbGUuY29tL3NpdGUvZHB0b2NkZS8=.jpg 3 -
/fonts/glyphicons-halflings-regular.woff 2 http://webcache.googleusercontent.com/search
/control/index.php 5 -
/index_files/img-3.png 1 -
/download/Calendario%20Academico%202015.pub 2 -
/pregrado/13 3 -
/.well-known/assetlinks.json 2 -
/control/preinsc/index.php/pregrado/20 1 -
/img/news/n160708111441%3Cb%3E%20J.jpg 8 http://webcache.googleusercontent.com/search
/news/60 4 -
/multimedia/Tuesday%205th%20of%20July%202016%2007%2030%2025%20PM.jpg 1 -
/img/related/aHR0cDovL3d3dy5mdW5kYXlhY3VjaG8uZ29iLnZlLw==.jpg 259 -
/control/index.php/galery 2 -
/multimedia/Friday%201st%20of%20July%202016%2010%2007%2027%20PM.jpg 2 -
/img/news/n160618222943PNF%20a.jpg 1 -
/multimedia/Thursday%2014th%20of%20April%202016%2005%2048%2019%20PM.jpg 1 -
/img/carousel/1.jpg 6 -
/control/multimedia/Wednesday%206th%20of%20July%202016%2003%2049%2019%20PM.jpg 1 -
/multimedia/Monday%204th%20of%20July%202016%2009%2043%2032%20AM.JPG 1 -
/multimedia/Thursday%2012th%20of%20May%202016%2008%2046%2038%20PM.jpg 1 -
/p1 2 -
/control/index.php/news/62 1 -
/control/css/global.css 3 http://iutfrp.edu.ve/control/index.php/news/64
/feed 1 -
/oferaca.html 3 -
/control/index.php/iut 1 -
/multimedia/Thursday%2012th%20of%20May%202016%2005%2041%2043%20PM.jpg 1 -
/img/related/aHR0cDovL3d3dy5taXNpb25zdWNyZS5nb3YudmUv.jpg 258 http://webcache.googleusercontent.com/search
/control/preinsc/index.php/bienestar 1 -
/img/news/n160606224930%3Cb%3EPr.jpg 1 -
/control/css/font-awesome.min.css 2 http://iutfrp.edu.ve/control/index.php/news/64
/control/index.php/news/52 1 -
/multimedia/Tuesday%2031st%20of%20May%202016%2008%2018%2050%20PM.jpg 1 -
/news/64 4 -
/control/index.php/pregrado/19 1 -
/control/index.php/pregrado/16 1 -
/pi 1 -
/img/logo.png 12 http://webcache.googleusercontent.com/search
/img/news/n160626200507%3CB%3ECu.jpg 2 -
/control/preinsc/index.php/news/60 1 -
/pb 2 -
/multimedia/Wednesday%2013th%20of%20July%202016%2003%2020%2036%20PM.jpg 1 -
/news/62 3 -
/images/demo/post.jpg 2 -
/multimedia/Wednesday%2020th%20of%20April%202016%2010%2038%2039%20PM.jpg 1 -
/multimedia/Monday%206th%20of%20June%202016%2010%2051%2000%20AM.jpg 1 -
/allnews 10 https://www.google.co.ve/
/images/demo/dieccc2.gif 1 -
/control/preinsc/login3.php 1 -
/control/index.php/profile 1 -
/pregrado/10 4 https://www.google.co.ve/
/gallery 64 -
/control/preinsc/index.php/pregrado/19 1 -
/control/index.php/pregrado/10 1 -
/control/index.php/aboutUs 1 -
/index_files/img-2.png 1 -
/multimedia/Friday%2015th%20of%20July%202016%2004%2010%2057%20PM.jpg 1 -
/robots.txt 64 -
/img/carousel/1b.jpg 13 http://webcache.googleusercontent.com/search
/multimedia/Saturday%2030th%20of%20July%202016%2011%2023%2045%20AM.jpg 7 http://webcache.googleusercontent.com/search
/img/related/aHR0cDovL3d3dy5vcHN1LmdvYi52ZS9wb3J0YWwvdmlzdGFzL2Rlc2Nhcmdhcy9iYW5uZXJzL2FyY19QbGFuX2RlX2xhX1BhdHJpYV9Qcm9ncmFtYV9kZS5wZGY=.jpg 261 http://webcache.googleusercontent.com/search
/img/carousel/a.jpg 1 -
/images/demo/fotoo3.png 1 -
/multimedia/Friday%2022nd%20of%20April%202016%2007%2009%2030%20PM.JPG 1 -
/fonts/fontawesome-webfont.woff2 3 http://webcache.googleusercontent.com/search
/news/56 2 -
/img/news/n160707154713%3Cb%3E1e.jpg 13 http://webcache.googleusercontent.com/search
/gallfoto.html 3 -
/multimedia/Saturday%2030th%20of%20July%202016%2010%2052%2006%20AM.jpg 7 http://webcache.googleusercontent.com/search
/multimedia/Tuesday%205th%20of%20July%202016%2004%2043%2011%20PM.jpg 1 -
/news/57 2 -
/control/index.php/pregrado/13 1 -
/pregrado/21 4 -
/fonts/glyphicons-halflings-regular.woff2 2 http://webcache.googleusercontent.com/search
/control/preinsc/index.php/allnews 1 -
/control/css/bootstrap.min.css 2 http://iutfrp.edu.ve/control/index.php/news/64
/multimedia/Wednesday%2013th%20of%20April%202016%2009%2010%2017%20PM.jpg 1 -
/pregrado/20 5 -
/images/demo/edf.gif 1 -
/pii 3 -
/vendor/laravel/vendor 2 https://www.google.co.ve/
/servicios%20estudiantiles.html 1 -
/pregrado/19 1 -
/multimedia/Sunday%2010th%20of%20July%202016%2006%2018%2021%20PM.jpg 1 -
END_SIDER_404

# Host - Pages - Hits - Bandwidth - Last visit date - [Start date of last visit] - [Last page of last visit]
# [Start date of last visit] and [Last page of last visit] are saved only if session is not finished
# The 25 first Hits must be first (order not required for others)
BEGIN_VISITOR 1586
190.38.251.9 579 1680 71565447 20160829213028
201.248.19.240 84 145 676770 20160831211938
186.92.52.64 51 177 15171688 20160831153425
201.242.206.62 46 80 5369858 20160831184754
190.74.201.196 43 156 8072287 20160831145148
200.16.95.164 41 132 6200602 20160831200623
190.36.213.205 41 125 10086706 20160829003439
190.203.178.19 41 157 16496495 20160831051517
201.242.131.190 39 216 19051241 20160830051651
190.202.211.166 38 125 11092773 20160831160629
190.72.134.66 37 123 5575892 20160831155548
190.202.40.49 37 57 3096713 20160831165807
190.36.210.53 37 97 7661719 20160828182338
190.202.247.254 34 70 24274 20160822181539
190.79.238.0 32 104 5032320 20160824153424
181.208.180.37 32 145 12929308 20160829054514
190.36.86.66 32 105 5203628 20160828161713
201.208.200.247 29 106 15699029 20160828042445
190.202.194.8 29 101 5143028 20160825053656
201.210.250.183 29 93 13638751 20160831223514
201.211.33.125 28 76 7655741 20160826051330
64.212.77.179 28 96 2959934 20160824155048
186.95.57.37 27 41 3148970 20160830143628
200.6.27.15 26 79 2919835 20160831221939
181.208.9.137 26 95 17673410 20160829052453
201.210.230.169 5 24 512072 20160829012509
186.185.6.83 3 15 2518435 20160825015909
91.121.181.101 1 1 6670 20160831060832
190.198.208.22 1 3 1065 20160822214819
200.84.100.242 6 32 3017183 20160829020539
190.202.231.191 1 3 1065 20160823022700
186.88.146.162 3 17 2990618 20160829122614
190.39.5.173 6 27 2529643 20160824034901
186.24.32.250 3 17 2990618 20160831175841
201.208.217.109 2 15 2461097 20160823203514
186.89.28.59 3 15 2518307 20160828040300
186.185.20.209 3 42 2461097 20160823193504
190.72.205.65 5 7 3833 20160822193907
186.167.244.81 2 2 11188 20160828014402
201.242.183.106 4 6 3141 20160822215850
181.17.86.35 3 15 2518307 20160827045645
186.185.44.30 5 19 3018542 20160831061247
186.95.98.106 4 16 2523820 20160824041932
190.75.44.250 13 76 9410721 20160824205347
186.92.143.189 8 32 5047694 20160824164545
186.95.240.201 1 3 1065 20160822164930
201.209.153.47 1 1 692 20160822214157
200.84.126.85 1 14 2461097 20160824030710
186.167.251.22 3 15 2533035 20160825231342
181.208.35.144 6 27 2529441 20160824195518
190.36.88.25 3 17 479421 20160831201633
190.79.111.94 6 30 5036742 20160825170754
190.72.116.50 9 21 48909 20160821235609
186.185.39.57 3 3 2076 20160822194448
190.39.6.173 3 17 2990618 20160829042800
190.73.30.24 2 28 4922194 20160823223240
190.79.214.110 6 20 3010412 20160829224556
186.185.125.184 2 7 479421 20160829215942
107.167.98.68 3 5 2449 20160822183801
186.188.13.64 2 14 2461527 20160828204603
201.211.162.115 19 80 5845316 20160825183131
190.170.133.197 3 15 2518307 20160826222135
201.249.20.69 3 15 2518307 20160824162116
190.75.42.81 5 17 2529495 20160827164744
190.203.103.79 2 7 13472 20160822005508
190.198.204.173 3 15 2518435 20160827234352
200.84.35.53 11 47 7603277 20160825192819
200.82.220.52 8 31 2544670 20160825234745
190.76.250.67 4 14 17858 20160830135718
190.77.148.203 15 66 10039297 20160828194822
190.203.205.238 19 55 5858660 20160831212526
200.35.64.106 1 13 2804500 20160831052531
186.167.248.161 3 15 2518435 20160827233321
190.203.6.73 2 7 13472 20160822020010
186.167.245.42 3 5 2449 20160822180327
201.242.182.235 3 15 2518435 20160826004225
200.84.38.179 3 15 2518435 20160824174108
186.167.250.35 3 11 11188 20160827171523
201.242.161.177 4 16 2523901 20160825052257
190.37.14.185 3 15 2518307 20160826003533
190.74.85.101 10 38 6015890 20160829041331
190.79.69.95 3 7 2822 20160822225002
200.8.90.204 1 19 2745559 20160823180333
190.79.99.111 10 137 4922194 20160824023514
201.243.237.155 3 17 2990618 20160831052843
190.170.162.41 10 34 4926512 20160826012401
201.210.2.19 5 17 2529495 20160824193821
200.82.215.243 2 11 347355 20160825053503
190.78.95.27 3 15 2518253 20160824064044
107.167.109.211 1 3 1065 20160823040738
190.75.59.61 7 31 5042208 20160827162317
190.203.112.4 3 15 2518307 20160825172119
190.79.223.100 3 17 2990618 20160829063340
190.38.121.129 3 17 2990618 20160829174123
201.208.210.74 3 17 2990762 20160831051426
200.44.194.170 7 21 3031738 20160830041021
201.242.191.41 2 4 1757 20160823032736
201.211.68.78 4 16 2655127 20160825171828
200.31.5.91 1 3 1065 20160822203825
201.211.60.189 3 17 2990618 20160830140458
186.185.63.115 5 17 2544479 20160825051216
190.202.55.13 2 28 4922194 20160823173759
190.203.182.170 5 7 3833 20160822123921
190.205.186.153 6 34 5981380 20160830004115
148.0.44.144 11 29 7985 20160822014246
186.92.60.220 3 17 2990762 20160830011747
186.90.189.124 3 15 2518307 20160828220556
190.216.234.26 3 15 2518307 20160824204622
186.167.249.192 3 17 499020 20160831035909
201.242.146.186 3 17 2990618 20160830025654
201.209.128.129 22 58 7672147 20160826062950
201.211.61.241 1 14 2461097 20160823203748
200.1.10.68 5 29 4857555 20160824200007
186.185.31.101 2 6 2162244 20160824152117
201.201.66.178 3 15 2518307 20160826215318
200.84.62.200 14 25 40654 20160822190110
200.11.192.79 3 15 2518307 20160825145111
190.206.216.62 3 15 2518307 20160825174710
186.185.118.58 3 3 2076 20160822175545
201.242.198.42 3 15 2518307 20160826143947
201.211.184.246 10 34 5088830 20160825223459
186.14.61.88 3 17 2990618 20160831165837
186.88.117.199 3 17 3056074 20160830032219
190.79.96.234 9 21 44752 20160825144500
181.208.132.147 3 15 2518435 20160828190626
148.244.50.10 11 25 3043402 20160830230816
200.84.61.96 4 16 2523901 20160824182821
201.210.238.64 6 30 2529751 20160824194540
190.72.148.192 3 42 7383291 20160823165336
186.88.202.217 3 15 2518307 20160827033833
186.167.250.253 8 32 5048058 20160826025126
190.73.22.122 1 6 6736 20160823015450
201.209.157.57 6 10 4898 20160823143224
190.38.101.26 3 15 2518307 20160827081347
190.75.74.58 3 17 13196 20160830142134
186.185.80.72 1 1 692 20160823012937
190.38.160.18 3 15 2533163 20160826032203
190.198.47.78 14 40 5559701 20160830183616
200.93.106.211 22 70 7622305 20160828010301
186.167.249.89 3 16 487334 20160830214832
190.203.99.120 3 15 2533163 20160824204724
190.73.21.226 3 15 2533035 20160828023148
190.203.166.78 4 8 3514 20160822164306
201.210.225.132 7 19 2541067 20160826171945
200.109.48.245 9 21 2551871 20160826175717
186.167.242.226 2 14 2461473 20160824051415
201.243.62.99 2 6 1757 20160822003742
190.74.207.222 2 14 2461527 20160825014405
201.243.47.45 18 43 5928296 20160825200811
190.205.186.1 6 30 5036742 20160829002225
186.167.244.243 3 15 2518435 20160826224305
190.201.22.123 8 20 2546277 20160826214322
52.33.171.222 1 3 137787 20160823232903
201.248.4.164 1 14 2461097 20160823233214
181.208.131.82 3 15 2518435 20160827010858
54.225.104.196 0 1 38638 
190.205.175.245 7 19 2540683 20160827234140
200.109.137.17 1 1 6598 20160829141717
190.78.103.156 0 1 236835 
201.210.156.121 12 16 9050 20160823023324
201.210.226.189 3 15 2533035 20160826191108
186.167.249.38 6 39 5946142 20160829042658
190.39.138.171 1 13 2661178 20160830184716
201.243.205.108 6 30 5036614 20160827185828
201.210.253.218 3 17 2990762 20160830155709
186.167.248.55 5 17 2529751 20160827134405
186.93.32.181 5 24 5584211 20160830184748
201.208.251.137 8 44 7549519 20160826150044
181.208.58.237 6 34 5981380 20160830223039
190.36.223.120 4 8 3514 20160822002523
190.203.162.85 7 31 5042400 20160826001619
200.82.165.5 1 14 2461097 20160823221842
201.209.143.151 18 98 17087870 20160830220332
50.62.208.159 9 9 50346 20160828153323
79.134.218.13 1 1 692 20160822073047
200.84.231.128 15 39 5087536 20160827194354
190.203.173.142 3 15 2518307 20160825151343
190.201.161.39 8 32 5047930 20160825142054
190.73.17.192 10 66 6007772 20160830180555
190.203.21.44 5 17 2544223 20160824192037
190.79.107.63 11 25 3044122 20160831170847
201.209.238.218 3 17 2990762 20160831041035
179.172.35.173 2 14 2461527 20160828191100
201.208.242.137 2 12 13472 20160824163833
200.82.164.250 3 20 2463227 20160823183749
190.73.158.81 1 14 2461097 20160824004945
201.210.244.160 10 46 7564502 20160826024848
190.114.240.182 1 14 2461097 20160823201105
190.72.11.33 3 17 2990618 20160829210314
190.72.148.39 3 17 2990762 20160830224029
190.203.212.110 17 78 11995462 20160831052119
201.211.129.252 3 15 2518307 20160824174243
186.167.243.48 1 4 156216 20160829034816
190.37.14.153 3 15 2518307 20160827015555
186.185.116.156 1 1 692 20160822030245
181.34.55.201 3 7 2449 20160822035659
186.167.249.150 3 17 3005346 20160830011232
186.185.5.56 4 7 2136548 20160824164606
186.167.242.36 6 10 4898 20160823000345
207.138.37.242 3 13 2711733 20160830172047
190.73.24.95 10 34 2551871 20160825203653
201.249.146.5 3 17 2990618 20160830172635
186.185.113.95 2 7 479277 20160830001404
107.167.112.144 3 27 4917524 20160825151455
201.211.63.147 3 15 2518435 20160827231357
186.167.244.221 3 15 2533163 20160824190207
201.211.65.152 3 17 3005490 20160829031840
201.242.88.142 1 14 2461097 20160823235204
190.75.78.160 1 3 1065 20160823002716
201.243.199.249 3 15 2518307 20160825200604
190.201.159.11 3 5 2449 20160822215502
186.167.245.24 3 15 2533163 20160828134836
201.242.179.178 4 6 3141 20160822151529
186.26.34.61 2 14 2174341 20160829000125
186.185.97.29 10 14 7293 20160822025044
190.202.249.91 6 32 5508925 20160831210629
186.188.74.203 5 19 2997216 20160831171317
186.95.210.221 3 15 2518307 20160825183109
190.74.66.139 3 15 2518307 20160827165204
190.77.131.81 6 18 2535089 20160825172608
109.74.86.243 3 15 2533163 20160825105914
190.39.30.145 3 15 2518307 20160824192404
201.243.235.159 3 15 2522294 20160825151319
186.94.210.77 1 1 5594 20160825161002
201.211.39.91 12 62 10545539 20160830133259
201.209.128.35 14 68 6020968 20160829182231
200.3.1.8 9 47 5382669 20160831184415
66.249.93.172 1 1 6736 20160823020741
190.79.101.1 1 3 1065 20160823022221
201.242.137.108 3 15 2518435 20160826175204
181.19.22.137 3 17 2990618 20160829035119
190.73.30.238 3 15 2518307 20160827170326
190.206.222.147 3 15 2518307 20160828213402
190.36.212.200 12 45 3117216 20160830153635
200.84.58.205 5 13 3833 20160822171259
190.79.237.214 7 31 5042336 20160825040704
190.73.5.62 4 18 2997216 20160829205035
190.204.228.137 3 15 2518307 20160829004210
201.243.60.3 5 29 2523901 20160826154626
190.38.84.34 3 15 2518435 20160825042021
190.74.228.124 3 15 2518307 20160825182814
190.72.32.82 5 19 3004102 20160831165947
186.167.251.166 2 7 13472 20160823014715
190.206.180.11 3 15 2518307 20160828193624
190.202.36.83 1 7 292910 20160823215412
186.94.199.192 5 17 2529495 20160825035459
190.201.133.223 3 9 2449 20160822151843
190.202.222.50 10 19 30726 20160822175240
201.210.238.14 3 17 2990618 20160829233907
200.84.58.196 1 11 2323391 20160828000451
190.39.132.34 2 14 2512713 20160825185852
107.167.105.210 2 15 2468647 20160825015042
201.208.206.7 1 14 2461097 20160823234337
186.167.243.35 3 5 2449 20160821223231
186.90.137.162 2 27 4917003 20160824065219
144.76.80.151 6 6 33564 20160826015631
92.185.33.165 3 17 2990618 20160830113337
200.44.255.212 6 26 2405909 20160826051821
190.36.91.44 3 17 498876 20160829141311
190.36.197.59 1 14 2461097 20160823215851
186.90.25.39 9 29 2654627 20160824220201
190.73.13.93 7 21 3017010 20160830023711
186.167.251.174 11 13 7985 20160822024210
190.72.151.45 3 17 2990762 20160829222509
201.210.131.58 1 1 5658 20160827234610
190.98.241.254 1 16 2607376 20160823230559
186.185.81.26 2 2 1384 20160822234317
201.209.154.103 5 19 3003814 20160829224008
186.167.243.248 4 15 2442839 20160824211100
190.103.31.1 4 18 2534377 20160826045356
186.89.25.124 1 12 2419117 20160825035620
151.80.41.241 2 2 13340 20160831151040
190.208.31.203 3 17 2990618 20160831001258
201.242.205.81 7 17 47152 20160823145010
190.79.99.139 8 32 4915196 20160824193945
200.84.33.43 3 17 2990618 20160831043428
200.84.56.165 2 4 1757 20160822175817
190.74.210.61 3 15 2518307 20160825170234
186.167.242.74 3 17 498876 20160831165906
190.79.114.138 5 7 3833 20160823001151
190.76.250.13 5 5 27835 20160824145128
190.207.11.110 3 15 2518307 20160826011338
181.208.33.15 3 17 2990618 20160830031833
190.79.111.55 2 2 13196 20160830230729
190.206.222.168 3 17 2990618 20160830020246
190.79.227.200 11 15 8358 20160822172113
190.73.31.66 6 32 5508925 20160829195655
186.95.237.173 3 5 2449 20160823153117
200.84.39.201 5 17 2544223 20160828021805
190.204.135.183 2 28 2461097 20160823181605
201.242.76.8 3 15 2518253 20160824071026
201.249.201.226 3 17 2990618 20160829194129
186.167.243.152 5 17 2529495 20160826161610
186.167.242.53 2 7 13472 20160822185749
107.167.113.134 4 31 5451715 20160830034135
186.167.243.138 2 2 11262 20160824090215
168.176.239.36 1 5 761305 20160829183635
200.84.36.202 7 31 3017010 20160829030101
190.39.130.204 1 14 2461097 20160823230444
190.36.248.84 5 20 4643923 20160825001640
200.82.164.152 12 52 8922447 20160826173140
186.167.243.246 5 17 2544223 20160826003500
201.243.60.209 5 24 3003814 20160829034843
200.1.10.63 3 10 2200784 20160825171915
190.79.126.15 3 15 2533163 20160826155846
186.185.71.32 3 15 2583619 20160825175509
190.75.68.93 3 15 2518307 20160825033710
195.81.226.117 3 15 2518307 20160825094928
200.82.220.127 14 66 11029438 20160831161254
190.202.2.2 3 15 2518307 20160825144103
190.79.103.81 6 30 22376 20160828033251
186.167.245.43 5 17 2529495 20160825235429
200.62.9.66 1 3 1065 20160823150159
186.167.244.75 2 28 4922194 20160823232020
201.242.69.158 9 35 5049251 20160826223338
190.77.44.130 6 34 6010692 20160831225343
78.95.169.24 1 1 5181 20160823185553
190.73.16.184 3 15 2532981 20160824052934
190.205.183.194 12 64 11018122 20160831065049
201.249.197.186 5 19 3003814 20160831154643
186.185.51.150 3 15 2533035 20160828050059
200.3.195.7 3 15 2518307 20160824231033
186.167.249.195 9 23 538464 20160829153318
186.185.63.238 3 15 2518435 20160827183021
190.205.176.57 3 15 2518307 20160825025201
200.84.42.101 3 15 11188 20160825184131
186.26.163.60 4 16 16782 20160827185218
201.248.10.230 13 55 5888218 20160831221308
190.37.78.149 6 30 2594699 20160824124838
200.84.33.219 3 17 2990762 20160830024236
190.77.47.162 5 21 2992519 20160829172316
190.203.105.67 1 6 6736 20160824174945
186.96.75.254 5 19 3003814 20160829213146
201.242.93.125 3 17 2990618 20160829020911
190.203.2.151 3 15 2518307 20160825155032
200.8.206.46 3 15 2518307 20160825022124
107.167.113.35 1 14 2492749 20160826205545
186.167.242.83 8 33 5056293 20160830033103
190.36.61.84 3 15 2518307 20160828011858
190.79.104.190 6 34 3018542 20160831023211
201.210.228.17 3 17 3005346 20160831052318
200.84.63.61 1 1 6736 20160822142236
201.242.169.239 3 15 2518307 20160825210743
190.203.111.223 21 33 2618399 20160824152941
179.40.42.130 3 17 2990618 20160830004428
190.202.36.209 3 15 2518307 20160825193628
190.79.118.7 3 15 2518253 20160824041716
200.84.33.32 3 15 2518307 20160825015344
190.76.250.21 3 15 2583619 20160825052018
186.185.29.16 6 30 2529623 20160826051055
190.203.208.119 2 12 2335223 20160831043916
186.167.244.210 6 18 2544223 20160828182416
201.211.49.133 6 36 3653859 20160830173007
190.76.64.221 19 46 5156107 20160830000243
186.90.8.200 1 14 2461097 20160823192226
168.176.239.31 1 4 270925 20160829183625
201.209.156.214 6 30 2529495 20160825052407
190.206.155.218 4 16 2523901 20160826001236
200.8.6.15 4 25 2997216 20160831031519
190.74.253.156 3 17 2990618 20160830153305
190.204.145.31 3 17 2990618 20160831150608
200.90.110.27 4 18 2519372 20160825185944
201.242.189.72 2 4 1757 20160823054940
186.93.249.226 5 14 10250 20160822222922
190.74.66.202 4 6 3141 20160822173937
190.121.228.188 1 3 1065 20160822143551
190.36.162.185 12 27 3279246 20160830225651
190.39.4.12 15 60 5087204 20160825152701
190.203.134.65 8 36 6002550 20160830020833
186.167.250.143 1 14 2890424 20160829155214
190.75.59.53 5 17 2529495 20160828211221
201.210.245.109 7 9 5217 20160823034331
186.88.152.155 5 7 3833 20160822171143
190.73.26.184 3 17 2990618 20160831232313
186.167.245.135 1 14 2461097 20160824013949
190.79.96.106 7 21 3017010 20160830171214
195.154.183.187 8 8 44752 20160824160334
190.79.96.58 3 15 2518307 20160824154414
186.95.158.14 1 3 1065 20160822154736
190.79.227.152 1 14 2461097 20160823211953
107.15.113.30 18 101 14143488 20160826002857
190.203.192.224 5 17 2544351 20160828224138
186.185.123.195 7 40 2540683 20160824193722
2.36.97.2 3 15 2583565 20160824090000
107.167.113.32 3 27 5262391 20160829221809
201.209.130.211 6 32 5509053 20160831163032
190.198.231.156 10 56 7509027 20160825221450
190.166.132.75 6 30 5036742 20160826203633
190.198.118.136 3 17 2990618 20160831224759
201.208.147.41 5 29 2529751 20160826190013
186.94.214.40 2 28 2461097 20160823201032
190.76.250.40 3 16 2556945 20160828223459
187.126.44.206 1 2 129138 20160830165455
190.203.162.175 6 30 5036506 20160824040126
201.249.207.210 6 18 2535089 20160824200840
201.242.105.32 3 17 2990618 20160830234212
66.249.83.251 0 1 225 
186.167.248.29 3 15 2518435 20160828135439
66.102.8.139 1 1 692 20160822191537
200.84.63.216 1 1 5594 20160825003040
190.74.225.41 1 3 1065 20160822145117
190.202.144.170 3 17 2990618 20160831164510
186.167.243.181 3 15 2518307 20160827172508
190.79.99.188 2 7 13472 20160822011524
201.210.226.21 1 3 1065 20160822222509
200.84.50.93 5 17 2529495 20160825143538
190.73.8.105 2 4 1757 20160823140510
186.167.248.188 3 17 3005490 20160829084044
190.217.2.104 4 18 2997216 20160829193134
190.72.87.223 6 34 5981380 20160829152011
190.74.82.148 11 31 4682183 20160825023625
150.186.1.1 1 1 5594 20160825195308
201.208.234.36 5 17 2529495 20160828101059
190.72.147.125 1 14 2461097 20160824015206
200.109.35.247 9 23 3030782 20160830193523
190.77.46.251 3 15 2522294 20160827042951
186.90.129.242 3 15 2518307 20160825021708
54.151.42.39 2 2 0 20160829211454
200.84.48.215 3 15 2533163 20160824170344
200.109.47.239 3 15 2518307 20160824193358
179.7.66.128 1 3 1065 20160823054748
190.37.79.4 13 39 5084413 20160828030040
206.132.225.42 3 17 2990618 20160829215538
201.211.177.59 6 30 5036742 20160824170413
190.202.236.249 9 35 5659343 20160830190258
200.84.47.65 7 19 2549817 20160825184045
190.142.247.246 3 17 498876 20160829165343
181.208.45.53 7 23 364292 20160825040003
190.77.42.13 3 15 2518307 20160827041835
186.167.244.34 3 15 11316 20160826020215
190.217.4.106 3 17 2990762 20160831172200
190.202.6.181 11 59 7908098 20160830161030
190.206.196.138 3 19 2878077 20160827004920
200.84.46.222 6 30 4904008 20160826214557
50.21.188.84 3 3 0 20160830121906
190.202.222.216 10 38 3030782 20160831154458
191.125.164.42 3 15 2533035 20160824194425
190.202.232.204 20 98 14556666 20160830020512
190.202.252.98 3 17 13340 20160831165646
200.84.32.185 3 15 2533035 20160825170622
190.103.31.130 2 8 301471 20160824143705
1.127.48.198 5 17 2478309 20160828055015
186.88.108.234 3 17 3005346 20160831223856
190.72.148.219 3 39 4922194 20160824024218
181.17.3.15 3 5 2449 20160823045756
201.210.250.250 3 15 2518435 20160824181831
181.208.41.187 5 17 2529751 20160824185643
190.36.101.178 1 14 2461097 20160823171042
200.109.65.77 1 14 2461097 20160823173631
186.94.65.34 8 23 3119398 20160830153955
66.249.88.59 5 8 19886 20160826140001
190.73.15.120 3 15 2518307 20160827041651
190.72.148.97 4 16 2524093 20160825221434
200.84.50.169 1 1 5594 20160825044743
190.73.31.192 3 17 2990762 20160831035841
190.202.255.121 2 6 1757 20160823061055
200.90.100.85 6 30 4904008 20160828185150
201.211.177.219 7 35 6038016 20160831001620
190.204.156.230 5 20 3773239 20160824052401
186.91.163.24 19 33 3112210 20160830000642
91.199.212.132 0 1 53 
190.202.51.24 2 4 1757 20160822153054
190.38.167.40 3 15 2518307 20160827060036
200.82.164.95 3 17 2990618 20160831154351
66.249.93.170 1 1 6736 20160823215605
186.90.130.104 3 17 2990618 20160829040913
201.210.249.77 2 14 2598154 20160831160106
181.208.34.67 12 52 8859186 20160830025643
190.60.41.99 3 15 2518253 20160824144807
8.37.232.36 10 37 2920771 20160827205231
190.75.35.119 1 3 1065 20160823045639
201.208.240.184 5 19 3003814 20160831174219
190.79.111.49 5 17 2529495 20160824225526
190.39.135.111 3 15 2533035 20160826041832
190.77.45.89 16 68 8535403 20160830232315
201.210.237.131 5 19 3018830 20160830140844
186.92.183.160 3 15 2518253 20160824035421
190.205.155.170 0 1 752762 
186.167.243.93 1 3 1065 20160823030903
186.167.243.131 3 17 13196 20160831023546
190.79.121.18 2 11 1595496 20160826041711
186.94.196.41 7 19 2540683 20160826201509
23.96.208.78 1 1 6670 20160829211455
201.208.241.225 10 12 7293 20160822181115
200.109.230.177 3 17 2990618 20160830174317
186.185.112.137 4 18 505474 20160831215907
186.185.5.251 5 17 2594807 20160827212205
186.94.208.96 2 28 4922194 20160823180911
190.202.238.228 1 14 2461097 20160824002432
200.84.40.23 9 54 4999098 20160824033442
201.210.245.67 3 15 2518253 20160824075030
46.229.167.149 1 1 5658 20160827143817
201.209.146.166 2 4 1757 20160822144942
186.90.150.113 3 17 2990618 20160830110919
186.90.153.225 3 7 2449 20160822172349
186.167.248.105 2 7 13472 20160822171918
190.205.170.97 21 93 12625867 20160829001844
200.84.218.88 6 27 2529643 20160824035853
190.75.91.130 6 30 5036870 20160827063616
188.165.196.25 1 1 6598 20160829103629
190.205.173.160 5 17 2529495 20160825173755
186.91.138.198 10 34 2552383 20160825220013
201.211.183.125 6 30 2679041 20160825213324
69.171.228.123 1 1 6670 20160831163353
201.242.140.19 3 17 2990762 20160830042537
186.95.106.56 5 17 2523901 20160828212826
186.167.244.225 3 15 2518307 20160828031201
190.79.253.71 2 4 1757 20160822004530
190.77.145.95 3 17 3278189 20160824224644
190.202.215.33 3 15 2518307 20160827020026
190.36.128.79 0 1 229246 
186.185.48.105 3 17 3005346 20160830152624
190.73.173.81 4 18 4115689 20160825025613
190.72.169.18 3 15 2518307 20160826031043
107.167.112.74 3 17 2990618 20160829142106
200.84.150.31 2 2 11188 20160824173323
190.79.111.90 1 3 1065 20160822224508
186.95.153.24 5 17 2529495 20160827232607
150.187.110.250 6 34 5996108 20160831142803
186.14.253.200 17 35 3942123 20160831224507
201.243.198.48 3 42 4922194 20160824011209
186.33.164.140 8 34 5520113 20160830051409
201.209.247.76 9 33 5016580 20160826211218
190.36.92.63 5 33 2997216 20160831164028
201.242.98.13 4 19 2888349 20160830224228
190.202.200.66 3 15 2533035 20160825122725
186.91.140.56 15 46 3178288 20160830194310
201.210.245.29 3 14 1694009 20160826165657
201.208.196.204 5 7 3833 20160822174749
186.185.113.3 10 14 7666 20160822171826
201.208.213.212 1 3 1065 20160823000410
190.216.247.50 3 15 2524537 20160831145715
201.243.224.141 8 32 5048058 20160826223955
186.88.140.23 2 2 11161 20160825033014
186.185.28.116 2 2 1384 20160823004202
190.39.166.133 9 25 2547993 20160824220216
201.209.155.79 7 20 2548187 20160824225536
190.72.90.27 1 5 6736 20160824171740
190.203.96.32 9 51 8971998 20160829200207
168.176.239.35 1 2 6798 20160829183633
107.167.112.218 3 19 2609642 20160823232045
190.170.158.8 3 15 2518435 20160824224137
201.208.194.172 5 7 3833 20160822032611
201.243.233.212 5 17 2529495 20160824194046
45.55.134.12 2 4 145802 20160829194520
107.167.108.63 2 14 2512713 20160824182603
190.203.146.109 1 13 2455933 20160828183527
190.202.250.113 6 30 4904008 20160824183411
190.72.183.206 1 6 6736 20160822150648
190.203.177.146 6 18 2604990 20160825044123
200.8.204.15 10 34 5059502 20160826184719
190.79.115.150 3 15 2533163 20160825205835
201.211.45.224 9 23 3030206 20160829164936
186.167.251.157 6 32 3016534 20160831203806
190.205.170.8 3 5 2449 20160822233416
201.249.194.243 3 15 2518307 20160824162906
190.36.83.84 2 6 2130 20160823142302
201.248.23.46 3 7 2449 20160823000623
190.73.18.151 3 17 2990762 20160829155353
190.202.230.183 3 15 2533035 20160825191004
186.167.251.45 3 17 2990618 20160830001626
201.238.47.44 1 3 1065 20160823031836
186.88.187.123 12 63 11692425 20160829193826
190.73.19.13 3 17 2990618 20160831013822
54.221.199.147 1 2 13651 20160828193646
186.92.76.175 3 17 2990618 20160829025251
190.202.211.167 1 3 1065 20160822172852
201.243.197.5 3 17 2990618 20160831235843
190.203.150.19 3 5 2449 20160822200535
201.249.194.174 23 140 20620820 20160829213734
190.39.200.138 12 43 5773126 20160831153452
186.90.34.202 7 35 5987978 20160830205424
190.202.207.83 4 16 61467 20160822132548
201.242.156.166 1 1 5658 20160827021330
186.167.243.65 3 17 2990618 20160831035952
201.242.178.226 3 17 2990618 20160829175523
186.90.62.35 2 4 1757 20160822030710
186.167.248.56 3 15 2583747 20160825092129
190.73.10.69 6 30 5036742 20160827165504
200.84.105.56 5 17 2529751 20160825213926
190.79.196.122 3 10 36514 20160825035738
190.36.211.165 4 18 3062126 20160831235954
190.203.112.68 5 7 3833 20160822030547
186.167.242.203 2 4 1757 20160823024512
186.167.242.231 3 17 3005490 20160829073242
190.74.84.140 3 15 2518307 20160825181558
186.94.52.73 2 14 2512713 20160825023609
201.210.239.56 1 1 6736 20160821232211
201.208.236.180 1 3 1065 20160822042111
201.248.5.69 1 15 3285395 20160823201718
190.74.246.107 3 15 2518307 20160828005231
200.84.56.12 2 28 2466278 20160823225031
186.94.223.205 2 7 13472 20160822140459
190.202.221.120 3 17 2990618 20160830203023
186.167.251.37 1 14 2461097 20160823223114
186.24.34.98 3 11 2239422 20160824201558
190.36.225.60 2 4 1757 20160823133439
190.73.18.126 1 3 1065 20160822010449
190.37.171.142 3 15 2518435 20160826233928
138.59.117.120 8 32 5048186 20160824172348
200.109.45.200 1 14 2461097 20160824013512
138.185.64.5 4 18 2997216 20160830170503
66.249.88.18 22 55 8691590 20160831170621
186.167.242.105 4 16 2589815 20160826195800
54.158.35.92 1 1 6598 20160830040129
186.96.75.122 1 14 2461097 20160823233154
107.167.112.146 3 15 2518307 20160825193412
186.94.71.157 5 30 2598038 20160825225508
190.202.214.132 10 34 2551999 20160826230054
201.209.144.42 9 45 7555049 20160825203221
190.204.143.27 3 15 2533163 20160825184115
201.210.235.59 6 32 5508925 20160831014349
200.93.113.44 6 30 5066198 20160828084814
186.167.249.244 5 20 1374700 20160826005116
190.36.93.71 5 17 2529495 20160825192545
190.79.200.107 6 30 5036742 20160826190834
190.198.45.223 9 23 2532892 20160824232055
190.79.117.113 3 15 2533163 20160825014134
201.242.141.57 23 90 6085113 20160831163318
192.0.101.29 1 1 5181 20160823205500
66.249.88.23 15 49 6083924 20160831170621
186.92.77.208 2 4 1757 20160823032829
186.89.118.46 3 15 2518307 20160824190306
186.185.101.164 3 17 13196 20160831185320
200.44.251.186 9 23 3030206 20160829173140
186.92.157.150 14 50 5141084 20160825172936
186.92.45.247 5 19 3003814 20160830154459
186.185.47.118 1 15 2927240 20160830012044
190.79.254.21 3 15 2518307 20160826183511
186.95.96.68 3 15 2518307 20160826041707
186.92.128.246 3 15 2518307 20160824220240
181.208.43.237 1 3 1065 20160821235404
186.167.249.90 2 9 1471481 20160830005015
200.84.53.42 5 17 2529495 20160825031541
190.14.222.182 3 15 2518307 20160825224754
200.41.51.84 5 17 2529495 20160826225104
190.216.238.132 3 15 2518307 20160824185623
201.210.154.74 5 17 2529495 20160825025235
176.149.208.95 3 17 3005346 20160831202205
195.154.233.224 2 17 2936397 20160829231509
190.202.224.120 6 34 5981236 20160830225027
190.39.141.27 18 75 8411483 20160831161757
186.167.248.47 4 23 26392 20160831171558
195.154.181.168 1 1 5594 20160828104001
196.218.56.53 2 2 11188 20160828102901
190.205.191.102 1 3 1065 20160822041340
201.210.228.212 9 33 5053588 20160824161058
200.44.229.88 13 27 3069318 20160830005345
186.95.96.31 1 14 2461097 20160823175409
190.202.250.71 3 15 2518307 20160826163904
190.74.61.189 1 3 1065 20160822040413
190.74.188.9 3 15 2533035 20160826031339
186.167.250.66 2 11 39923 20160829233756
186.185.12.64 3 17 2990618 20160831214410
190.202.251.88 3 18 2667853 20160825154551
201.243.193.41 14 38 67896 20160825161536
201.242.221.153 5 9 4206 20160822065304
190.76.250.101 3 15 2583565 20160824034629
201.211.66.37 3 15 2518435 20160825175522
190.73.11.248 19 38 3096186 20160829153150
201.210.231.198 3 37 5674956 20160823203058
190.72.19.69 9 21 2551871 20160825195039
186.90.28.88 6 18 2535089 20160828163320
201.242.156.200 1 1 6598 20160829220846
190.79.214.18 6 28 3539850 20160825160919
186.95.157.72 2 6 2130 20160822015313
190.75.92.104 3 15 2518435 20160826022303
190.75.99.33 4 8 3514 20160822205535
186.89.25.152 6 30 4904008 20160825183312
190.74.228.157 3 15 2518307 20160826201546
200.93.120.125 13 41 3535968 20160830005228
190.202.205.58 5 19 26392 20160831030227
190.37.29.146 19 55 7610749 20160826172711
190.79.229.217 3 15 2518307 20160824164919
190.79.113.190 3 15 2518307 20160826073042
200.1.15.30 5 20 4643667 20160825171625
151.50.39.189 1 3 1065 20160822165817
200.84.45.190 2 9 181728 20160826192556
186.185.79.160 2 10 29960 20160826161923
201.210.246.101 3 15 2518435 20160824204409
201.210.240.254 8 36 5994576 20160831065331
201.211.86.184 7 21 3017010 20160831032721
200.35.9.129 0 2 103847 
200.8.14.201 6 20 28701 20160822213419
201.242.199.55 3 17 2990762 20160830205103
66.87.123.200 3 5 2449 20160823021743
186.185.99.105 1 5 6736 20160822015928
200.82.204.202 3 17 2990618 20160830033630
190.202.22.171 3 15 2533035 20160826220852
201.249.66.134 1 14 2461097 20160823225154
190.198.60.153 2 16 2933838 20160831021237
186.185.126.7 3 15 2533035 20160827215229
190.202.214.11 3 42 7383291 20160824012510
66.249.88.54 3 6 13316 20160829174415
186.90.43.86 3 15 2518307 20160827043850
190.153.54.115 1 14 2461097 20160823193248
78.250.83.143 2 2 13196 20160831114052
190.77.121.65 3 15 2518307 20160825191724
181.19.61.37 3 5 2449 20160822153835
201.210.184.214 3 15 2518307 20160824201139
201.242.132.169 2 7 13472 20160822180958
186.167.245.61 3 17 3005346 20160829185232
200.8.163.111 12 42 2727874 20160824171508
186.167.251.188 1 6 29855 20160823122240
186.167.250.203 4 16 2523901 20160827014449
200.84.45.240 2 10 28519 20160823022846
190.74.180.59 3 17 2990618 20160831030332
200.84.52.163 5 17 2529495 20160828005441
186.167.244.49 3 17 2990618 20160829073718
186.167.249.207 5 13 2250610 20160825173843
190.75.68.137 3 15 2518307 20160826225007
200.84.104.129 4 6 3141 20160821230846
201.208.221.22 7 33 5515651 20160829024257
190.198.47.6 3 17 2990762 20160831033640
190.202.37.67 3 15 2518307 20160825150357
200.93.97.31 17 97 14606091 20160826193520
201.210.255.51 2 2 13472 20160823033411
190.37.205.173 3 17 2990762 20160829175338
201.208.208.201 6 21 2581047 20160826215025
190.75.90.139 3 15 2518307 20160825032059
186.167.249.41 3 17 2990618 20160830212401
186.167.248.244 1 1 6598 20160831190818
201.210.153.174 3 15 2518253 20160824060953
190.79.100.113 3 15 2518307 20160826205134
190.75.79.45 5 19 3003814 20160831144247
190.79.221.245 7 9 5217 20160821234525
201.242.142.140 9 45 5048058 20160828030549
186.92.66.212 2 2 11188 20160824215329
190.36.210.146 10 34 3049805 20160831154032
190.79.127.139 8 36 5994576 20160830213859
107.167.106.213 2 14 2461527 20160827195723
181.208.35.120 4 8 3141 20160822173235
190.205.182.224 6 30 2529267 20160824033454
186.185.87.117 2 7 13472 20160823035049
186.89.21.198 10 38 6007772 20160831191033
190.203.138.149 6 34 5425050 20160831001001
190.74.249.163 7 19 2540683 20160828013506
190.72.212.62 3 17 2990618 20160830015430
190.73.31.138 3 14 1694137 20160825235319
190.73.10.67 8 36 3017010 20160830200411
190.198.33.218 3 15 2518435 20160828193132
186.185.109.211 1 6 6736 20160821225301
190.202.238.132 14 38 2574247 20160826201430
190.79.108.206 3 15 2533035 20160825003328
200.8.204.20 8 46 7705640 20160829031701
190.76.250.6 3 15 2533035 20160826015157
190.202.221.116 5 26 5703596 20160831191031
190.75.61.84 4 29 4979404 20160825160727
200.84.51.230 1 1 692 20160823135223
181.34.235.210 3 17 499020 20160830011900
190.73.9.137 3 15 2518307 20160828031340
195.23.102.124 5 19 3003814 20160829131231
190.202.193.254 2 6 2130 20160822181038
186.91.133.180 3 15 2518435 20160825180823
173.252.121.118 1 1 6598 20160830140601
190.73.9.83 3 15 2518307 20160829001355
201.242.92.225 13 49 7577425 20160826172037
200.109.208.252 5 18 2839478 20160829175229
190.38.166.96 3 17 2990618 20160831132603
201.249.191.130 3 15 2522294 20160825165336
186.90.174.154 3 15 2518307 20160825142003
190.72.207.199 5 19 3003814 20160829165727
190.206.215.68 1 7 170104 20160823213639
66.249.83.164 2 9 697784 20160825024818
190.39.212.91 4 16 2593748 20160824062809
190.202.204.1 5 19 3004102 20160831030239
201.208.229.208 2 2 11316 20160827011006
190.74.239.140 6 15 2147682 20160824222125
190.201.150.186 3 15 2518253 20160824062702
201.243.216.221 4 8 3514 20160822235659
190.36.210.76 5 24 3018542 20160829042427
95.120.35.193 5 19 3003814 20160830210743
190.205.169.137 4 22 2688952 20160827155755
190.202.200.178 3 15 2533035 20160825024645
190.201.188.199 12 52 5548143 20160829211548
190.202.219.237 3 17 2990618 20160831174926
190.204.135.27 3 17 2990618 20160831214917
186.185.233.65 1 3 1065 20160822151552
201.243.225.66 2 9 30920 20160822030702
201.208.63.87 1 2 127721 20160824031106
190.36.90.227 3 15 2518307 20160825195511
190.79.101.93 5 17 2529751 20160826162827
186.88.160.245 3 17 2994605 20160831221641
190.79.97.16 5 19 3003814 20160830224139
201.210.148.66 3 15 11316 20160825213001
186.89.22.26 0 6 1676453 
190.202.222.193 1 9 304945 20160825214725
186.185.85.238 1 1 692 20160823150635
190.202.87.132 1 14 2461097 20160823193307
190.72.12.129 3 14 2146921 20160829152207
190.202.253.208 4 6 3141 20160823022203
186.167.244.85 5 7 3833 20160822171050
181.208.34.98 6 27 22376 20160825230404
200.8.80.220 11 53 6022356 20160831184748
190.75.62.73 6 30 5036742 20160825010502
186.90.129.253 7 21 3017010 20160830002219
62.210.181.15 1 1 0 20160829213021
186.167.249.23 4 56 4922194 20160824025301
200.8.204.29 3 15 2518307 20160825041335
144.76.23.194 1 1 6670 20160829211455
181.19.84.42 1 1 6670 20160831042210
186.185.24.3 3 15 2533163 20160825174040
186.88.149.140 2 4 1757 20160822213840
190.74.215.171 3 15 2518307 20160826165108
190.73.23.55 3 17 2990762 20160829155214
186.185.15.165 7 19 2555795 20160825233617
186.185.99.93 4 6 2768 20160822183942
201.211.90.183 25 114 15048958 20160831025654
186.167.243.132 6 26 5677663 20160829163551
107.167.108.53 1 15 2499735 20160824015229
190.73.11.89 11 25 65980 20160831183034
190.198.32.8 3 15 2518307 20160826193704
186.90.184.151 3 15 2518307 20160827215840
190.198.218.240 2 4 1757 20160822175428
200.44.254.244 4 18 2997216 20160829210540
200.109.44.42 6 30 5036742 20160825022344
186.90.11.101 10 38 6007916 20160829203002
150.186.210.2 3 15 2518307 20160826163700
190.36.93.161 13 41 4360626 20160829222947
200.82.164.138 3 15 2518307 20160824195307
190.73.170.190 5 17 2529495 20160825023117
200.5.167.151 0 10 248634 
186.167.244.76 3 17 498876 20160829022923
186.167.244.135 2 5 2125434 20160824041028
190.202.203.42 17 41 83910 20160826185915
200.84.39.173 3 15 2518307 20160827013654
54.204.20.249 0 2 831418 
190.74.220.10 1 13 2230269 20160823161639
190.202.176.54 4 16 2523901 20160828235634
190.202.204.167 3 15 2518307 20160827011341
54.244.48.43 1 1 692 20160822045515
186.90.17.85 5 17 2529751 20160824223514
190.72.150.121 1 1 6736 20160825060456
186.95.154.120 3 17 2990762 20160830180730
201.211.95.87 8 44 5814836 20160825225231
190.73.16.150 6 10 4898 20160823071732
201.210.240.57 6 34 5716024 20160830172438
190.73.30.179 10 38 3030206 20160830191942
190.199.170.97 1 3 1065 20160822163601
186.167.242.121 8 24 3865190 20160831030154
190.38.159.190 17 65 7594471 20160826145527
186.167.245.214 3 15 2518435 20160825014129
190.77.36.111 9 21 2552383 20160824174701
190.79.100.7 9 51 9016038 20160829183323
190.36.244.80 6 14 5271 20160823024316
200.82.191.42 11 47 5059118 20160827000632
190.201.53.40 5 17 2529495 20160826055524
190.205.177.113 5 17 2529495 20160827215022
181.208.180.169 4 18 2996420 20160830152358
136.243.154.102 2 2 6670 20160829211612
78.174.155.218 2 2 13196 20160829165047
186.90.15.18 3 15 2518435 20160827015121
190.75.97.173 2 5 11188 20160826195053
190.198.193.225 3 17 2990618 20160829021734
190.39.1.153 6 30 4904008 20160825182113
190.202.226.55 3 15 2518253 20160824033432
186.94.218.216 3 15 2518307 20160824161702
190.207.78.10 6 8 4525 20160821213550
201.208.236.130 3 15 2518307 20160825044336
88.198.22.8 5 5 27970 20160826014300
190.203.6.141 5 19 4106555 20160824173649
201.242.187.170 2 28 2461097 20160824011336
201.249.192.202 7 35 3032976 20160829191510
186.90.28.196 3 17 2990618 20160830163422
107.21.253.49 0 1 537112 
200.93.127.119 1 3 1065 20160822214519
186.90.26.116 3 15 2518307 20160825034544
190.73.19.205 3 42 4922194 20160824024249
190.203.112.9 3 15 2518307 20160825042851
186.167.248.153 2 6 13196 20160830123505
186.167.248.88 5 17 2544223 20160826192145
201.210.229.19 3 17 2990762 20160830220633
186.14.253.178 16 67 8609063 20160831162157
200.93.126.143 10 39 6236874 20160830170446
186.167.249.196 3 17 3005346 20160831230052
186.185.68.93 19 23 13894 20160822203249
201.211.93.15 7 20 2577499 20160826034423
52.32.172.31 1 1 5594 20160825041232
190.198.38.133 5 19 3184218 20160829224005
190.73.27.109 3 42 2461097 20160823233824
191.99.177.77 1 1 6670 20160829095737
201.211.93.98 5 14 22632 20160826202053
190.203.223.203 6 34 6010836 20160829034328
200.82.220.249 3 17 2990762 20160831232556
190.74.95.222 17 41 5098404 20160826182025
190.205.61.217 3 15 2518307 20160824222730
200.124.246.185 3 15 2518307 20160825233144
200.84.122.32 7 19 2540683 20160826152039
190.198.212.14 7 21 3003814 20160831203003
190.79.222.16 3 15 2518307 20160825162737
190.202.206.203 21 31 16397 20160823134337
201.209.21.38 3 17 2990618 20160831032217
66.249.84.29 1 1 5594 20160825201107
200.84.38.225 7 31 5042336 20160826191220
190.202.22.194 8 12 6282 20160823153210
186.167.249.74 1 10 101384 20160825021556
190.75.40.148 6 34 5981380 20160830194141
186.14.46.53 5 9 4206 20160822214323
190.39.142.249 5 19 3004102 20160831004215
190.205.39.70 2 4 1757 20160823153531
186.167.250.224 2 28 2461097 20160823171245
190.79.100.221 11 13 44249 20160822164539
186.167.248.247 1 1 5594 20160829005636
190.205.230.34 18 93 15536515 20160830064109
190.198.210.59 3 15 2533163 20160825005429
190.79.107.107 6 8 4525 20160823022155
201.210.138.58 5 17 2529495 20160827022445
200.35.94.52 5 17 2529495 20160826032117
190.205.172.12 6 25 1168860 20160831233852
190.203.24.208 8 24 2994595 20160829122439
186.167.244.142 5 17 2529495 20160828215807
190.76.250.77 1 3 1065 20160822191202
186.90.184.60 3 15 2533035 20160825233238
190.202.14.249 22 122 20935391 20160831194557
190.203.218.179 3 17 3005346 20160830172418
190.156.162.4 5 17 2529387 20160824071205
190.206.131.184 4 16 2523901 20160824170256
66.249.80.54 0 4 396909 
216.82.251.228 2 5 1757 20160822150957
181.208.180.127 3 15 2518307 20160825222629
186.88.144.23 8 37 6819018 20160831180652
201.243.226.247 3 17 2990618 20160829042045
190.73.14.229 3 17 2990618 20160831234942
200.109.57.210 3 17 2990762 20160829213325
41.102.147.102 1 1 5594 20160824190608
190.203.218.55 17 77 2574247 20160824160746
190.203.136.51 13 53 8563889 20160830004430
186.90.186.65 3 15 2518307 20160824203028
190.72.205.122 10 34 5059246 20160829000639
190.203.173.160 13 55 6021256 20160830172852
186.92.75.212 5 17 2529495 20160824213504
190.202.88.164 4 23 5577469 20160829172914
186.185.88.60 5 17 2544479 20160828211125
181.208.43.23 1 5 1587 20160823042928
200.84.49.147 3 15 2518435 20160828013542
186.167.248.23 5 9 4206 20160822171557
49.32.44.171 2 2 11188 20160825130506
186.92.96.43 3 17 2990618 20160829013111
190.73.29.194 3 15 2518307 20160826022204
190.75.83.64 5 33 2463546 20160824001225
190.203.128.152 5 17 2529495 20160827201303
190.37.81.247 3 15 2518435 20160825015206
190.72.241.117 3 17 2990618 20160831220942
5.135.120.248 1 1 692 20160822212704
190.73.2.209 5 19 3003814 20160829234604
200.109.60.242 3 15 2522294 20160825160551
201.242.161.206 3 13 956103 20160827000000
201.210.226.233 9 45 2540521 20160824052550
190.36.85.212 5 17 2529495 20160825170400
190.76.6.123 3 18 2462854 20160823201555
186.33.228.110 1 3 1065 20160822175442
201.249.198.194 3 17 2990618 20160831140615
201.248.22.228 3 17 3005346 20160830021127
186.92.142.99 2 4 1757 20160822145404
190.79.116.104 8 44 5047930 20160825202103
200.1.171.138 3 15 2518307 20160825221448
190.37.43.88 3 15 2518307 20160827013920
177.145.154.181 1 14 2697994 20160830120348
201.243.249.143 3 15 2518307 20160828150817
190.36.112.117 1 3 1065 20160822011916
200.109.64.90 3 15 2518435 20160825181736
186.92.106.201 15 27 2585435 20160825223333
207.46.13.139 1 1 6598 20160829205145
104.236.120.134 1 1 5594 20160826024547
201.243.59.246 8 34 5522537 20160829181139
200.125.189.1 3 17 3005346 20160829162823
201.209.247.196 3 17 2990618 20160829193230
201.243.48.19 3 17 2990618 20160829033831
186.167.245.108 3 17 3005490 20160829033140
190.79.241.246 7 19 2540683 20160825022857
200.93.117.34 3 8 20208 20160822155939
190.202.247.220 6 30 5036742 20160824211617
201.210.246.56 4 20 3383226 20160831160107
190.142.220.114 3 17 2990762 20160829184031
201.242.84.107 12 48 5987664 20160831192044
200.1.171.150 23 106 3378683 20160831192925
186.91.117.120 3 17 2990618 20160830182700
201.249.175.157 11 27 2622925 20160829213837
186.185.4.251 8 8 5536 20160822141242
200.8.9.25 1 14 2461097 20160824013254
190.202.217.146 2 5 2125360 20160826160336
186.95.104.137 6 34 4925335 20160823190723
190.201.151.12 10 57 3030206 20160831165535
200.8.224.76 1 6 6736 20160822165324
190.205.48.10 1 3 1065 20160822172159
190.206.137.157 1 14 2461097 20160823191624
200.109.56.139 10 51 6272336 20160829224057
201.210.249.144 4 6 3141 20160823060746
186.167.251.214 7 36 4195863 20160828220840
190.74.89.44 3 17 2990618 20160830211339
190.39.8.198 3 15 2518307 20160825214413
200.8.204.157 1 3 1065 20160822035309
186.167.245.146 7 21 3017442 20160831165243
181.208.36.23 3 17 2990762 20160831214317
200.44.249.94 3 15 2518307 20160829005135
190.75.40.208 8 36 5994432 20160831184544
201.248.74.146 15 53 8058582 20160830181219
200.75.136.230 3 15 2518307 20160824183757
66.249.80.63 1 6 1281739 20160830004916
186.167.249.43 3 17 2990618 20160829181315
190.72.149.217 3 15 2518307 20160824204130
190.73.20.163 3 15 2518307 20160824181828
190.202.210.218 5 19 3018830 20160830001812
190.204.229.239 1 14 2461097 20160823175251
181.208.180.138 7 11 5590 20160822151600
190.75.61.10 1 1 6598 20160829161932
190.79.110.144 2 6 2130 20160823063111
186.89.41.104 25 61 7611437 20160826061452
201.208.215.117 10 43 6007628 20160830001317
200.82.164.222 2 7 13472 20160823200557
190.203.193.126 1 14 2461097 20160823171844
190.75.59.211 4 11 22376 20160825193932
201.249.194.114 18 77 6185506 20160830171208
200.84.58.190 14 64 8976083 20160829184403
190.204.157.23 4 16 2538629 20160826210716
200.8.228.36 1 3 1065 20160823010438
201.209.187.106 3 15 2518307 20160828093547
201.210.229.96 3 15 2518381 20160824065413
190.79.102.33 4 30 5785396 20160829223031
201.243.57.192 1 3 1065 20160823145309
186.185.89.112 3 15 2533163 20160825002311
201.210.150.34 6 34 3004102 20160831205437
190.73.8.204 6 18 27970 20160825210644
186.167.249.228 6 10 4525 20160823151000
190.79.117.45 3 17 498876 20160831034301
201.211.44.42 3 15 11188 20160826194948
186.90.16.45 3 15 2518435 20160827164420
200.82.220.179 18 56 7576228 20160826230103
190.203.182.216 5 11 853042 20160825232548
190.205.164.119 8 50 8965256 20160830201114
186.167.243.122 2 2 11188 20160824212243
201.242.182.43 2 14 2461527 20160824230524
201.242.187.5 5 19 3003814 20160829055255
181.34.252.115 6 13 2166380 20160825215838
168.176.239.32 0 2 275473 
186.167.242.196 5 19 3018542 20160831000543
190.202.13.214 1 3 1065 20160822161953
186.167.249.72 2 9 2144004 20160827204443
186.167.243.74 8 36 3017442 20160831033000
201.210.253.57 10 58 9959742 20160826235028
168.235.206.218 4 16 2523901 20160827202713
190.76.250.74 3 17 3005346 20160829181940
190.75.126.5 3 15 2518307 20160826170946
200.229.216.18 5 17 2529751 20160828190201
201.210.237.149 5 19 3003814 20160830002241
186.95.109.39 3 15 2518307 20160826152200
200.229.217.11 24 140 10855816 20160830201740
46.229.170.193 1 1 6670 20160830021329
201.242.93.68 3 15 2518307 20160826043304
190.153.52.76 5 17 2529495 20160824163201
190.202.29.6 1 3 1065 20160823132603
201.242.178.124 3 17 2990762 20160829162659
217.69.133.169 1 1 5594 20160825202648
201.211.66.11 2 4 1757 20160822071656
200.11.136.198 8 38 4958825 20160826141340
190.25.44.237 4 24 119420 20160831032403
190.202.222.170 3 15 2518435 20160827183857
190.73.223.208 6 32 5376591 20160831055914
190.72.67.193 8 32 5047930 20160825022852
201.210.248.31 2 14 2461527 20160825194520
190.203.174.102 4 18 2864610 20160830180045
186.185.52.106 1 3 1065 20160822022253
181.208.37.12 2 25 2461097 20160823230220
190.73.10.9 19 89 3555474 20160831175425
186.167.248.25 3 17 498876 20160829213548
181.34.181.19 1 1 6670 20160830185352
190.202.42.250 5 9 3833 20160822145817
64.212.225.210 4 28 3652548 20160829174923
190.202.24.110 2 12 2458060 20160825192309
190.79.100.242 3 17 2858012 20160831060910
200.73.197.158 11 23 2563059 20160824175533
200.93.35.235 5 9 4206 20160822214602
201.211.73.204 8 22 3023608 20160831201405
186.92.173.63 3 17 2990618 20160831054706
201.209.228.68 4 21 2997216 20160829024103
201.238.48.224 4 16 2538821 20160824190146
190.74.87.61 7 28 2675960 20160826060431
186.94.194.114 11 51 8525459 20160831221146
186.185.98.121 3 17 2990618 20160829145201
190.205.192.191 3 15 2518435 20160824212511
200.84.61.52 3 15 2518307 20160827191653
186.167.251.125 3 17 3005346 20160830051040
186.167.248.149 3 17 3056074 20160830051922
186.167.248.84 6 29 715481 20160830125004
200.93.126.144 19 85 2580481 20160826211611
190.79.107.60 3 15 13196 20160830191735
200.71.150.10 3 15 2522294 20160826165028
201.210.181.158 3 15 2518307 20160828212538
190.73.29.82 5 20 512360 20160829135553
201.242.152.61 12 75 12949856 20160830090246
190.39.142.227 3 15 2518307 20160827192320
201.243.46.60 7 31 5042336 20160824210413
190.73.23.30 3 15 2518435 20160827021637
200.84.44.161 3 15 11188 20160825223200
186.185.125.128 1 1 692 20160823160136
190.36.49.85 3 15 2533035 20160826142347
201.211.184.27 6 10 4898 20160822163637
190.39.44.39 9 21 2551871 20160826044126
190.203.23.226 4 13 303354 20160827234509
190.73.0.238 6 6 4152 20160822200107
190.77.57.27 6 32 5508925 20160830061915
190.203.11.60 14 44 5043024 20160828205853
201.210.174.252 3 17 2990618 20160829225130
200.84.63.11 3 17 2990618 20160830142039
201.209.229.131 6 30 5036742 20160824172716
186.185.3.89 2 11 36062 20160830201651
66.249.83.248 1 2 840 20160822191537
201.209.135.252 3 15 2518435 20160828030611
200.84.40.250 7 26 4870767 20160827231832
190.78.188.242 6 30 5036742 20160825021959
190.170.158.98 1 14 2461097 20160823194455
186.90.133.86 3 17 2990618 20160831200224
200.93.114.199 21 89 11541481 20160831225805
190.73.162.233 2 4 1757 20160822175806
190.39.8.64 1 1 6598 20160830021447
190.205.180.237 3 9 3195 20160822215647
200.84.115.54 0 2 466081 
190.202.236.242 3 17 2990618 20160830024832
190.198.219.100 5 21 978153 20160829193349
201.208.240.188 3 15 2518435 20160825224355
200.8.90.94 5 19 3003814 20160830153455
200.109.54.113 3 15 2518435 20160826140725
186.188.34.81 9 51 5994432 20160829174645
186.95.217.68 3 15 2467121 20160826210733
201.210.250.212 3 17 2990618 20160830230407
186.167.242.46 3 15 2518307 20160827005700
190.77.138.176 6 34 5981236 20160831200333
54.204.20.250 0 1 200 
186.167.248.133 3 15 11188 20160826150021
186.185.7.94 2 6 2130 20160822165242
201.243.92.10 1 6 6736 20160822132455
190.36.50.121 12 52 8525711 20160829213454
186.167.244.78 12 24 2568653 20160829005536
186.90.135.40 3 15 2518307 20160826143923
201.242.81.28 3 15 2518307 20160826193409
190.72.146.197 8 34 5047260 20160824233536
186.89.23.123 3 15 2518307 20160825034524
150.186.197.203 4 16 2589815 20160825211437
186.94.193.205 2 6 2130 20160823003805
200.35.10.60 2 26 4818347 20160823215420
186.92.241.183 2 4 1757 20160821222958
186.185.51.240 1 3 1065 20160823143256
187.59.200.67 1 3 182647 20160827031620
190.75.72.216 8 33 5872228 20160825004704
190.72.253.144 10 14 12541 20160824065301
186.185.91.11 1 1 692 20160823143640
201.242.189.131 6 32 5508925 20160830140349
201.210.224.47 1 6 29855 20160829225244
190.203.143.198 9 13 6974 20160823015530
66.249.83.167 3 13 1115857 20160830004940
190.38.190.5 2 4 1757 20160822062048
190.202.232.242 1 14 2461097 20160823215002
77.241.63.1 7 19 2540683 20160824195511
207.138.37.213 3 17 2990618 20160831172819
186.94.76.185 8 32 5048058 20160826170652
201.209.6.61 6 25 2753634 20160826172800
201.209.139.142 3 15 2518253 20160824053439
62.154.199.77 3 15 2518435 20160824182150
187.44.177.158 2 11 1863860 20160827031620
200.109.66.194 3 15 2518307 20160824165103
190.202.55.107 3 17 2990618 20160830195756
190.37.218.249 10 34 5059246 20160824211808
186.167.248.240 1 11 1594883 20160827033853
191.251.198.171 0 1 537112 
201.242.169.68 1 10 847283 20160830173125
201.208.130.249 8 36 5994576 20160829025530
200.84.54.122 1 14 2461097 20160823190143
190.202.242.74 5 22 4222657 20160831212935
200.109.50.169 5 15 2396889 20160826000617
190.36.207.28 12 37 3038934 20160831144713
190.75.118.194 1 14 2461097 20160824001605
66.175.125.152 6 20 3010412 20160829172311
190.75.125.108 6 8 4525 20160822164028
190.79.104.156 3 15 2518307 20160826192708
190.217.2.102 5 30 4984998 20160825164858
200.93.93.251 5 19 2997216 20160829194241
190.39.141.122 3 17 2990618 20160831230923
107.167.112.217 2 14 2461527 20160824164824
201.248.65.162 5 24 3004234 20160829172608
190.76.250.12 3 14 1708737 20160826162312
207.138.37.77 3 15 2518307 20160826134630
190.39.129.39 3 17 13340 20160831072357
186.89.137.179 6 23 4783689 20160828172234
190.123.163.173 1 3 1065 20160822151215
186.26.29.174 3 15 2533035 20160828011052
190.205.219.187 3 17 2990618 20160830174844
181.208.47.180 5 33 4781279 20160824030224
190.198.221.135 6 30 2529387 20160824132232
181.95.124.234 3 17 2990618 20160831193449
190.79.97.89 3 15 2518307 20160825163248
186.90.181.127 6 20 3010412 20160831214934
186.90.169.124 11 15 9227 20160823042729
186.167.251.217 3 17 2990618 20160831041903
190.36.56.69 3 10 14537 20160822164510
190.203.237.179 12 38 5080091 20160825192205
168.176.239.33 0 4 1676117 
186.96.78.134 3 15 2518307 20160824222356
201.210.248.249 1 14 2461097 20160823211802
162.243.243.250 3 11 576507 20160825023608
190.38.248.120 4 26 4892948 20160826104057
190.75.125.212 12 80 2646173 20160824152616
190.38.54.180 4 34 4924324 20160823175005
186.167.243.109 3 17 2990618 20160831062719
62.210.148.91 1 1 5594 20160825180438
190.73.9.104 3 15 2518435 20160826031901
186.90.143.1 3 15 2518307 20160826222231
190.204.132.205 7 19 2540683 20160824161004
181.208.54.189 6 34 5981380 20160829201904
190.207.193.4 3 17 2990618 20160830001329
186.90.12.111 2 11 502143 20160831203634
201.209.131.59 4 19 3234051 20160830015629
186.185.106.174 2 4 1757 20160822223251
190.74.222.70 6 22 2521203 20160824124651
190.38.85.95 0 1 824298 
186.14.94.218 7 31 5108250 20160826131359
190.201.9.75 3 15 2518307 20160826032945
200.84.53.199 3 15 2518307 20160826190214
201.210.232.63 1 1 5658 20160827172733
190.203.131.199 1 1 6736 20160822024644
201.243.214.214 1 3 1065 20160822025733
200.93.115.17 6 30 5066070 20160827182006
186.90.105.0 3 15 2518307 20160826140926
186.167.4.50 3 17 2990618 20160829215030
190.205.179.3 4 18 3127438 20160829053224
186.167.244.15 4 18 2997360 20160830223147
200.109.41.102 3 15 2518253 20160824142531
201.209.251.65 3 19 3837701 20160830195802
186.167.248.83 5 17 2529495 20160828215001
190.203.180.83 7 42 9819231 20160830164602
186.167.249.127 3 17 2990618 20160830153230
190.202.242.91 2 17 2836295 20160831053508
190.73.28.242 8 36 3502978 20160830151152
66.249.80.65 0 6 1561990 
190.202.228.53 1 3 1065 20160823010215
186.91.135.206 3 15 2518307 20160826171803
190.36.80.29 3 17 2990618 20160830010439
186.90.140.243 3 17 2990618 20160830025428
186.167.244.202 3 15 2518435 20160826220033
201.211.50.241 1 13 2794634 20160831215911
186.188.9.49 6 30 2529495 20160828213732
186.14.194.43 7 32 4762509 20160830041707
181.34.206.91 3 15 2539409 20160830172300
201.243.91.138 16 46 6042259 20160831223735
190.73.20.39 7 19 2540683 20160828232928
200.109.37.140 10 34 5059246 20160825162846
66.249.88.28 11 47 7105535 20160831175807
190.72.45.147 3 15 2518435 20160827015127
190.77.152.131 1 14 2461097 20160823201728
186.185.48.141 3 17 3005346 20160830215150
200.93.113.183 13 66 11024962 20160830164122
190.202.200.135 3 17 2990618 20160829020444
190.153.54.125 3 15 2518307 20160825144716
181.208.180.12 5 20 4643923 20160825201248
186.167.242.109 1 10 2314857 20160824015959
186.185.121.92 1 14 2461097 20160824021136
190.75.49.198 6 14 4898 20160822212503
200.109.34.95 2 28 2461097 20160823215030
201.243.206.61 16 116 6341776 20160824140340
201.243.244.216 4 28 4974240 20160828191802
186.90.40.157 6 30 5036742 20160825223540
190.79.111.211 8 32 5047930 20160828035230
190.79.110.245 3 17 2613192 20160829023606
190.205.176.99 3 17 2990618 20160829011033
190.36.202.25 12 41 5647131 20160830203200
186.89.145.74 1 3 1065 20160822211000
190.202.239.104 8 36 5994432 20160831190538
200.93.125.86 7 9 5217 20160822234232
201.209.124.88 7 45 7964858 20160831185704
190.202.223.94 2 6 13472 20160825175038
70.54.115.37 1 1 692 20160821224620
201.242.173.149 7 43 7492675 20160825055147
190.203.114.237 3 17 3005346 20160829165831
186.90.30.69 3 17 2990762 20160830050555
88.1.195.156 10 38 6022500 20160831162053
200.84.36.228 2 5 22658 20160824060949
201.211.32.203 18 68 10579487 20160829202120
201.210.228.173 10 24 3045510 20160831215933
190.203.108.152 3 17 2990618 20160830205407
191.99.174.60 23 51 6086948 20160829195340
186.185.6.9 1 3 1065 20160822201353
186.185.42.39 1 1 692 20160822181241
201.211.52.210 6 32 5508925 20160829054011
190.198.63.185 14 38 5081494 20160825231000
186.185.42.123 2 10 13472 20160821222506
200.47.79.210 11 53 7876438 20160829215108
186.26.228.155 1 3 1065 20160822184241
88.1.221.18 1 3 1065 20160822223624
201.211.49.10 2 6 1757 20160823004309
190.37.172.26 3 17 2990618 20160829172541
182.68.171.120 2 2 11188 20160825122919
190.38.135.132 1 3 1065 20160823044454
201.249.186.66 3 15 2518307 20160824192621
54.221.198.105 0 1 752762 
186.185.236.15 3 17 2990618 20160831021524
201.243.90.130 3 17 2990618 20160829145951
190.199.156.120 4 18 2997216 20160829183919
186.185.125.15 4 18 3127438 20160831213229
200.84.62.143 1 1 692 20160823021333
178.140.94.104 2 14 2461527 20160825030305
186.88.185.89 3 15 2518253 20160824051340
186.95.109.247 3 15 2533035 20160826145403
66.249.83.174 1 1 5658 20160825013922
190.73.29.131 12 48 5132605 20160826171417
190.204.137.76 3 17 2990618 20160831183601
201.249.203.194 5 33 2479661 20160823164602
107.167.112.73 9 22 2764761 20160826235149
190.204.138.63 1 14 2461097 20160824031159
190.78.163.225 9 24 3782968 20160831041110
190.75.68.177 1 14 2461097 20160823215253
190.201.30.180 3 15 2518307 20160825192407
186.185.73.142 1 3 1065 20160822142641
190.73.23.157 7 19 2541067 20160828205253
190.200.214.139 3 17 2990762 20160829180955
186.90.190.26 3 18 3086408 20160830024202
186.94.201.145 3 15 2533035 20160826195125
190.142.220.162 6 28 7396735 20160828181247
199.16.156.125 1 1 6670 20160829211500
190.79.102.115 3 15 2518307 20160824202431
201.243.239.137 3 15 2518435 20160825153415
190.36.222.171 19 35 3381026 20160828193410
66.249.88.49 2 4 7362 20160830121740
190.79.121.50 7 11 5217 20160822030338
201.210.225.192 3 15 2533035 20160824172522
186.167.249.216 4 18 2997216 20160829165530
190.202.199.156 1 3 1065 20160823035413
190.39.130.76 7 19 2540683 20160824202653
190.202.14.130 1 3 1065 20160822132255
190.38.90.196 11 35 5064712 20160827072837
190.74.247.245 9 21 2551871 20160827213953
200.93.112.76 1 1 692 20160822004448
69.171.228.121 2 2 13340 20160831163354
200.109.34.106 3 15 2518307 20160826031549
190.74.210.132 5 19 3003814 20160829195012
186.95.59.191 4 10 2151925 20160824184507
122.53.157.90 3 15 2518253 20160824110000
186.90.180.230 12 16 9050 20160822151932
39.42.80.210 2 2 11188 20160825103005
190.72.155.220 3 17 2990618 20160830153637
190.79.126.52 2 2 11188 20160827033142
190.203.218.127 3 15 2518381 20160824042351
201.242.194.149 2 2 11188 20160826231751
190.79.120.92 3 15 2518381 20160824135530
200.93.12.5 3 17 13196 20160831042052
190.170.182.8 3 17 2990618 20160829150849
190.72.144.71 3 15 2518307 20160825030142
190.77.149.221 6 18 2536487 20160824203320
190.202.218.186 6 30 5036614 20160826231937
190.202.196.201 8 37 6747482 20160831230013
190.72.197.91 3 16 1825566 20160829222853
186.88.160.28 3 15 2522294 20160828004308
190.202.86.219 3 15 2518307 20160826174840
186.90.163.17 8 32 5047930 20160824160627
200.35.87.42 7 25 2831020 20160826162733
190.36.54.42 1 14 2461097 20160824013114
190.39.140.78 2 16 2984020 20160831223208
186.185.84.138 4 11 2155192 20160824193642
190.206.216.107 3 38 5763838 20160823191717
190.79.121.143 3 15 2518307 20160826202227
190.202.218.53 23 27 16662 20160823041024
190.39.132.235 7 26 2884404 20160830225118
200.44.121.58 17 79 11739772 20160826143001
201.243.42.106 3 15 2518307 20160826023737
190.170.158.7 6 20 3010412 20160830215717
201.210.251.240 5 18 3353793 20160826044343
190.37.156.175 3 17 2990618 20160830202244
186.167.245.136 4 28 3543707 20160824035220
190.75.48.98 3 15 2518307 20160825024643
190.198.149.163 7 21 3031738 20160831172918
50.118.198.215 3 15 2518435 20160828032434
201.210.230.172 3 15 2385701 20160826165650
190.74.237.97 5 19 3003814 20160831052458
186.185.60.139 4 14 26392 20160830231301
190.79.82.22 8 32 2540683 20160826014546
181.19.25.95 1 3 1065 20160822061737
190.73.2.123 8 73 8198857 20160825162433
186.167.248.22 4 18 3066257 20160831092443
190.36.219.116 1 14 2461097 20160824015525
190.75.42.11 6 32 5508925 20160831154229
161.196.38.12 4 19 3035854 20160830204215
190.36.221.56 6 33 4986063 20160827025704
190.39.166.170 3 17 3005346 20160831180325
186.185.3.75 2 6 11316 20160824194817
200.84.37.247 3 17 3005346 20160829015110
201.209.141.70 1 3 1065 20160822202532
190.38.220.59 6 20 2667695 20160825170803
201.211.170.59 6 30 5066198 20160828010436
190.36.92.48 4 13 512072 20160829181128
190.202.218.45 7 19 2540683 20160825190209
190.205.188.121 3 17 2990618 20160830191735
190.202.15.154 6 30 5036742 20160824201153
190.207.5.244 6 20 2681624 20160828181730
186.92.37.163 0 1 236835 
186.92.160.115 3 15 2518435 20160827204347
89.91.72.145 3 17 2990618 20160830114540
190.203.178.124 3 17 2990618 20160830053045
181.34.69.140 1 4 156144 20160830160542
201.210.227.31 3 15 11188 20160828231209
186.93.53.206 11 25 3043402 20160830233023
186.91.184.113 1 12 2419117 20160824223440
99.101.225.175 1 3 1065 20160822034613
190.202.89.199 3 15 2533035 20160824194406
186.88.149.226 6 30 5036742 20160825222819
186.90.165.64 22 26 15970 20160823010152
190.79.116.178 3 15 2518307 20160826222218
190.202.232.221 5 9 33680 20160824174707
190.206.209.28 8 36 5994720 20160830191926
201.210.230.170 5 9 4206 20160823000239
201.210.241.202 3 15 2533163 20160828154401
190.73.31.85 5 19 3003814 20160831235744
161.196.173.143 6 32 5509069 20160829222839
186.88.162.189 5 17 2529495 20160825014459
200.62.17.250 1 13 2455933 20160827045842
201.210.232.171 3 15 2518307 20160825151727
190.202.236.145 12 40 6020968 20160831205907
201.210.246.70 3 15 2522294 20160824171457
190.198.199.144 3 15 2518307 20160827014039
201.242.216.143 3 15 2518307 20160828183825
186.185.56.220 2 2 1384 20160822045056
190.36.82.119 8 36 5994432 20160831182603
190.200.211.245 5 23 3249150 20160829023033
186.90.182.71 9 51 8971854 20160829024143
190.39.19.75 9 35 5528847 20160831202028
186.167.248.242 3 15 2518381 20160824041610
200.84.40.10 3 15 2518435 20160827003150
190.75.99.138 2 5 2125488 20160825022721
186.90.21.210 9 21 2566599 20160825053422
190.199.137.39 0 1 236835 
201.242.161.242 3 17 2990618 20160830060126
190.202.217.40 2 7 13472 20160822043012
190.73.11.1 3 17 13196 20160831204325
209.236.23.188 3 17 3055930 20160831235646
190.77.48.83 10 26 7293 20160823040958
190.75.106.162 9 21 2551871 20160824180423
190.73.12.227 3 15 2522294 20160828225225
186.167.251.51 21 23 14905 20160822154840
186.167.244.96 2 11 13196 20160830192803
200.84.210.175 5 19 3004102 20160830143906
190.76.250.119 3 15 2724556 20160830175343
190.203.117.148 3 5 1757 20160822210547
108.51.63.245 1 14 2461097 20160823211002
201.211.90.175 7 34 5625206 20160824192548
190.202.242.138 11 49 8038676 20160829232045
190.79.102.189 3 15 2522294 20160826053643
186.167.243.64 3 15 2518435 20160825160228
190.206.221.148 10 38 6007772 20160831184744
200.93.118.149 5 17 2529495 20160827054545
190.73.22.175 8 32 5047930 20160825204041
186.14.52.97 5 17 2529495 20160825043116
190.202.254.5 3 17 2990618 20160829045014
190.78.49.105 3 17 2990618 20160830144216
190.73.29.238 3 15 2518307 20160826014349
190.76.250.87 6 32 5523653 20160829225452
186.167.250.124 3 17 499020 20160830210652
186.167.243.178 10 28 5438281 20160830034054
190.72.148.84 1 6 6736 20160822151437
190.202.30.46 1 3 1065 20160822162757
190.201.122.63 3 15 2518307 20160824210034
200.44.242.58 1 14 2461097 20160824015751
201.242.66.80 1 3 1065 20160822172910
186.167.241.140 3 33 6968558 20160826024909
190.74.246.41 3 17 2990618 20160829155952
62.210.75.243 2 3 107106 20160825152104
181.208.197.140 3 15 2518307 20160826190850
200.85.70.158 3 17 2990618 20160830152430
186.90.109.225 3 15 2518253 20160824142110
66.102.8.25 0 1 752762 
200.109.44.157 3 15 2518435 20160828210337
66.249.93.83 1 1 692 20160822002517
190.36.81.87 3 17 2990618 20160830035908
186.167.248.141 3 15 11188 20160826164447
186.73.71.221 10 38 6008060 20160830222116
190.36.80.3 15 39 5087088 20160825162555
190.79.118.76 5 17 2529495 20160826144321
201.210.224.222 1 3 1065 20160822015054
190.207.113.21 3 17 2990618 20160831123843
186.185.0.193 1 1 692 20160822124536
186.167.245.90 5 17 2529751 20160825043134
190.121.225.131 3 15 2522294 20160825011606
201.210.242.190 1 1 6670 20160830220722
190.206.212.50 7 35 5987978 20160831203159
198.50.233.144 2 5 287 20160823042133
186.95.219.21 3 15 2518307 20160825215402
162.243.233.118 2 4 1757 20160823090852
200.84.36.23 7 9 5217 20160822180533
190.204.153.192 3 17 2858156 20160829230602
173.252.121.115 1 1 6598 20160830140601
190.36.94.106 16 46 5023084 20160824152533
201.210.253.6 3 17 3005346 20160830215835
181.208.42.84 14 62 7577553 20160825211524
201.243.52.83 8 34 3017298 20160829170603
200.229.216.6 1 3 1065 20160822081513
186.90.144.202 3 17 2990762 20160831223153
201.210.130.175 6 34 5981380 20160831151158
186.167.251.58 1 14 2461097 20160823225945
200.82.246.197 5 19 3053996 20160830000930
190.73.4.33 7 19 2540683 20160824200308
190.39.199.192 1 10 842057 20160827233041
190.203.3.5 9 52 8444234 20160829192258
201.243.118.19 5 17 2529495 20160827051425
200.93.117.205 1 11 1594406 20160823214142
181.208.47.82 5 17 2529495 20160827182150
200.90.107.100 3 15 2518307 20160824205557
200.93.122.184 3 15 2518307 20160824174406
190.201.147.81 8 34 2531400 20160824052526
201.242.221.60 3 17 3005490 20160830213232
190.75.122.92 2 4 1757 20160821234143
201.242.174.247 5 7 3833 20160822160453
190.170.189.132 3 17 3005346 20160829172814
190.198.35.252 3 15 2518307 20160824184839
190.202.213.18 3 15 2518435 20160825200613
186.167.245.170 4 16 2542549 20160825025315
190.79.198.226 3 15 2533035 20160825144131
186.167.251.73 3 15 2522294 20160824191249
181.208.132.28 3 19 2624724 20160824175711
200.11.138.37 3 15 2518307 20160825225234
186.167.248.239 3 9 23540 20160823145507
200.93.119.74 2 16 2933838 20160831231719
201.210.248.228 7 21 3017442 20160831140450
201.208.195.211 11 22 65980 20160831143655
190.72.145.196 5 17 2529495 20160826192021
190.198.42.5 3 17 2990618 20160829164319
190.75.56.197 4 18 2997216 20160829202813
181.208.38.24 1 14 2461097 20160823222122
64.212.73.253 3 15 2518307 20160824155957
190.74.86.80 2 5 2125306 20160824144858
190.73.24.63 7 19 2540503 20160824152844
190.206.45.110 2 14 2461527 20160828011124
186.185.84.249 3 15 2518435 20160825030017
190.114.247.235 3 15 2518435 20160826190835
190.198.194.32 3 15 2518435 20160827142334
190.202.250.178 3 17 2990618 20160829213651
200.44.253.203 3 17 2990618 20160830194251
190.202.222.65 3 15 2533035 20160826042923
201.211.49.78 3 15 2518435 20160828165149
186.167.244.41 6 17 1399748 20160829132620
190.73.95.111 5 21 2992519 20160831030130
162.254.149.195 3 17 2990762 20160829191002
83.50.222.78 3 15 2518307 20160827235713
190.202.82.236 2 5 2125360 20160824185323
186.95.22.107 3 5 2449 20160822015509
201.242.153.64 6 20 2530560 20160824214631
190.198.211.119 12 66 11490433 20160830220212
186.90.167.42 1 14 2461097 20160823223150
201.243.249.249 11 23 2563059 20160825190331
200.82.204.53 25 65 2477759 20160823203112
66.249.83.170 2 12 1456109 20160827064603
190.66.165.5 3 17 2990618 20160830190352
66.249.83.171 3 3 17959 20160829060013
190.202.130.116 15 71 8087978 20160831222447
190.206.217.101 0 2 16114 
200.90.111.121 3 15 2518307 20160828173441
66.249.83.228 2 2 1384 20160822195633
186.88.158.144 3 17 2990618 20160831000435
190.77.73.209 3 17 2990618 20160831235958
190.60.57.127 5 33 5924600 20160830005258
186.185.98.247 1 1 5658 20160825025518
200.84.38.216 3 17 3005490 20160829023624
186.185.85.200 2 15 2468647 20160827172154
186.90.67.185 6 34 5981236 20160831040600
190.202.222.159 3 15 2518307 20160829000043
186.185.121.124 1 3 1065 20160823141458
190.38.129.31 3 15 2518307 20160826221905
201.243.61.58 4 4 2768 20160822155815
186.90.237.99 1 14 2890424 20160831172345
186.90.41.31 1 3 1065 20160822140836
186.167.249.188 3 15 2533163 20160827021459
190.204.144.107 6 8 4525 20160822184816
190.79.68.129 6 32 5509197 20160829161349
189.54.145.95 3 15 2583619 20160826200904
190.207.197.207 0 3 1290379 
186.94.195.119 9 21 2549630 20160824205340
190.79.194.132 6 30 2529691 20160824165202
201.208.226.162 3 15 2518307 20160824202237
201.242.209.73 1 3 1065 20160822232726
186.185.45.196 2 6 11316 20160824221525
190.72.240.77 4 6 3141 20160822190520
186.93.41.48 12 68 11962472 20160831041423
190.153.55.11 14 38 5081494 20160824162424
190.201.118.151 9 11 6601 20160823050738
200.84.49.84 2 2 13472 20160822204312
66.176.94.52 5 17 2529495 20160825175406
186.185.94.244 14 38 5081622 20160828160850
200.84.58.191 5 19 3003814 20160831223412
190.205.184.12 5 19 3018542 20160831212213
200.109.63.253 1 1 5594 20160827151915
190.73.0.26 4 17 3561168 20160829185531
END_VISITOR

# Date - Pages - Hits - Bandwidth - Visits
BEGIN_DAY 11
20160821 57 126 222069 19
20160822 762 1445 1113834 248
20160823 490 2509 253223836 221
20160824 1123 4848 627468833 286
20160825 1206 4817 676003812 296
20160826 907 3644 480840754 230
20160827 421 1739 239484527 118
20160828 482 1928 278198636 116
20160829 1437 5547 646357461 227
20160830 977 4152 595771599 223
20160831 878 3914 530978066 214
END_DAY

# Session range - Number of visits
BEGIN_SESSION 7
15mn-30mn 89
30mn-1h 78
30s-2mn 200
0s-30s 1529
1h+ 25
5mn-15mn 151
2mn-5mn 126
END_SESSION

# URL - Pages - Bandwidth - Entry - Exit
# The 25 first Pages must be first (order not required for others)
BEGIN_SIDER 42
/ 6582 38275489 2083 1461
/fonts/fontawesome-webfont.woff2 1303 64161400 6 520
/cgi-sys/defaultwebpage.cgi 235 1582960 94 87
/fonts/fontawesome-webfont.woff 210 13371996 2 95
/modifyPregrado/2 71 991780 1 0
/pregrado/2 50 1410242 0 0
/searchPregrado 42 209499 0 0
/fonts/fontawesome-webfont.eot 34 1823010 0 13
/login 27 93366 7 5
/admin/related 27 427150 1 0
/fonts/fontawesome-webfont.ttf 26 2930208 1 12
/bienestar 12 317037 0 0
/admin/html/bienestar.html 12 139037 0 0
/admin 12 61404 0 0
/admin/links 11 141219 0 0
/admin/html 10 36388 0 0
/adminPregrado 8 29696 0 0
/admin/topBarChange 7 29169 0 0
/fonts/glyphicons-halflings-regular.woff2 6 90140 1 3
/admin/newPicture 5 31095 0 0
/admin/indexPhoto 5 35859 0 0
/modifyPregrado/3 4 28775 0 0
/admin/html/services.html 4 40142 0 0
/addPregrado 4 19660 0 0
/services 4 114161 0 0
/pregrado/3 3 64273 0 0
/admin/multimedia 1 4896 0 0
/524589.BIN_AUTOSSL_CHECK_PL__.JWvQpELU_DkBMAE4.tmp 1 64 0 1
/524589.BIN_AUTOSSL_CHECK_PL__.QTsf8kAHIwubeG7M.tmp 1 64 1 0
/control/index.php 1 6814 0 0
/fonts/glyphicons-halflings-regular.woff 1 23424 1 1
/modifyPregrado/1 1 22018 0 0
/addNews 1 5459 0 0
/fonts/glyphicons-halflings-regular.eot 3 60381 0 0
/admin/newUser 2 11525 0 0
/vendor/laravel/vendor 1 73423 0 0
/aboutUs 2 43391 0 0
/pregrado/1 3 104437 0 0
/admin/html/index-demo.html 2 7828 0 0
/admin/carouselEdit 3 31981 0 0
/admin/users 2 17030 0 0
/adminNews 1 3571 0 0
END_SIDER
